Division,WeightClassKg,Place,Name,Team,BodyweightKg,Best3SquatKg,Best3BenchKg,Best3DeadliftKg,TotalKg,Equipment,Event,Sex
Boys,55.79,1,JoRey Gonzales,Austin Bowie,51.89,106.59,79.38,138.35,324.32,Single-ply,SBD,M
Boys,51.71,2,Bryan Martinez,Taylor,51.12,147.42,56.7,117.93,322.05,Single-ply,SBD,M
Boys,51.71,3,Jorge Pedroza,Little River Academy,47.63,113.4,68.04,133.81,315.25,Single-ply,SBD,M
Boys,51.71,4,Marsalis Carrington,Austin Bowie,48.35,111.13,65.77,120.2,297.1,Single-ply,SBD,M
Boys,51.71,5,Jhovanny Gutierrez,Hearne,50.35,102.06,56.7,127.01,285.76,Single-ply,SBD,M
Boys,51.71,6,Luis Mena,Del Valle,51.44,86.18,63.5,124.74,274.42,Single-ply,SBD,M
Boys,51.71,7,Raymond Sifuentes,Hearne,48.9,77.11,56.7,104.33,238.14,Single-ply,SBD,M
Boys,51.71,8,Mikal Underwood,Killeen Shoemaker,49.53,77.11,40.82,95.25,213.19,Single-ply,SBD,M
Boys,51.71,9,Juan Rodriguez,Hearne,45.27,70.31,29.48,92.99,192.78,Single-ply,SBD,M
Boys,59.87,1,Michael McIntire,Taylor,55.97,215.46,102.06,181.44,498.95,Single-ply,SBD,M
Boys,59.87,2,Marcos Mendoza,Salado,55.88,161.03,95.25,165.56,421.84,Single-ply,SBD,M
Boys,55.79,3,Marquis Wilson,Elgin,54.98,113.4,81.65,165.56,360.61,Single-ply,SBD,M
Boys,55.79,4,Celestino Hernandez,Del Valle,55.7,138.35,72.57,138.35,349.27,Single-ply,SBD,M
Boys,55.79,5,Will Meng,Liberty Hill,55.43,138.35,70.31,133.81,342.46,Single-ply,SBD,M
Boys,55.79,6,Colby Esparza,Little River Academy,55.34,117.93,74.84,145.15,337.93,Single-ply,SBD,M
Boys,55.79,DQ,Jonathan Bedolla,Elgin,55.79,,,,,Single-ply,SBD,M
Boys,55.79,8,Manny Herrera,Hutto,54.61,122.47,61.23,142.88,326.59,Single-ply,SBD,M
Boys,55.79,9,D'Ontre Haynes,Killeen Shoemaker,53.8,108.86,63.5,122.47,294.84,Single-ply,SBD,M
Boys,55.79,DQ,Chris Martinez,Bastrop,55.07,108.86,68.04,,,Single-ply,SBD,M
Boys,59.87,1,Jarrett Burford,Dripping Springs,58.69,131.54,97.52,163.29,392.36,Single-ply,SBD,M
Boys,67.13,2,Joseph Marmolejo,Taylor,59.92,140.61,83.91,167.83,392.36,Single-ply,SBD,M
Boys,59.87,3,Alvin Martinez,Del Valle,59.42,145.15,72.57,149.69,367.41,Single-ply,SBD,M
Boys,67.13,4,Freddy Hernandez #1,Hearne,60.06,117.93,77.11,158.76,353.8,Single-ply,SBD,M
Boys,59.87,5,Mareck Garcia,Austin Bowie,59.6,124.74,74.84,151.95,351.53,Single-ply,SBD,M
Boys,59.87,6,Ernan Lopez,Hutto,56.43,124.74,70.31,145.15,340.19,Single-ply,SBD,M
Boys,59.87,7,Toby Kidwell,Taylor,59.87,113.4,68.04,145.15,326.59,Single-ply,SBD,M
Boys,59.87,8,Elijah Hall,Elgin,59.15,113.4,61.23,147.42,322.05,Single-ply,SBD,M
Boys,59.87,DQ,Branden Abercrombie,Del Valle,59.24,124.74,70.31,,,Single-ply,SBD,M
Boys,67.13,1,Zerrick Merchant,College Station A&M Cons,67.13,222.26,117.93,251.74,591.94,Single-ply,SBD,M
Boys,67.13,2,Matt Maldonado,Del Valle,66.32,181.44,113.4,192.78,487.61,Single-ply,SBD,M
Boys,67.13,3,Fisher Sutterfield,Austin Bowie,66.22,174.63,117.93,181.44,474,Single-ply,SBD,M
Boys,67.13,4,David Salazar,Taylor,64.68,183.7,102.06,181.44,467.2,Single-ply,SBD,M
Boys,67.13,5,Sigi Martinez,Leander,66.13,192.78,104.33,163.29,460.4,Single-ply,SBD,M
Boys,67.13,6,Domo Matthews,Killeen Shoemaker,61.87,154.22,86.18,179.17,419.57,Single-ply,SBD,M
Boys,67.13,7,Chris Hendricks,Leander,65.32,142.88,86.18,163.29,392.36,Single-ply,SBD,M
Boys,67.13,8,Zach Smith #11,Little River Academy,64.59,131.54,95.25,163.29,390.09,Single-ply,SBD,M
Boys,67.13,9,Brice Williams,Little River Academy,64.41,151.95,74.84,161.03,387.82,Single-ply,SBD,M
Boys,67.13,10,Cory Ferrell,Liberty Hill,62.51,151.95,86.18,147.42,385.55,Single-ply,SBD,M
Boys,67.13,11,Justin Mondrik,Little River Academy,63.14,136.08,77.11,154.22,367.41,Single-ply,SBD,M
Boys,67.13,12,Quavon Stevens,Del Valle,66.77,133.81,81.65,151.95,367.41,Single-ply,SBD,M
Boys,67.13,13,Humberto Lopez,Hutto,65.63,136.08,81.65,142.88,360.61,Single-ply,SBD,M
Boys,67.13,14,Jose Martinez,Taylor,63.96,138.35,83.91,133.81,356.07,Single-ply,SBD,M
Boys,67.13,15,William Tolliver,Hearne,63.78,113.4,81.65,156.49,351.53,Single-ply,SBD,M
Boys,67.13,16,Ian Zamorsky,Hutto,66.77,122.47,68.04,145.15,335.66,Single-ply,SBD,M
Boys,67.13,17,Alex Rangel,Taylor,66.27,136.08,72.57,124.74,333.39,Single-ply,SBD,M
Boys,67.13,18,Zae Giles,Manor,61.96,124.74,61.23,145.15,331.12,Single-ply,SBD,M
Boys,67.13,19,Justice Owens,Hutto,63.78,127.01,72.57,129.27,328.85,Single-ply,SBD,M
Boys,67.13,20,Jared Haynes,Hutto,64.23,122.47,77.11,127.01,326.59,Single-ply,SBD,M
Boys,67.13,21,Steven Svatek,Taylor,67.13,102.06,72.57,149.69,324.32,Single-ply,SBD,M
Boys,67.13,22,Devin Henson,Elgin,61.33,115.67,86.18,115.67,317.51,Single-ply,SBD,M
Boys,67.13,23,Grant Bautista,Pflugerville,62.87,113.4,58.97,117.93,290.3,Single-ply,SBD,M
Boys,67.13,24,Miles Pastusek,Pflugerville,66.68,61.23,74.84,111.13,247.21,Single-ply,SBD,M
Boys,74.84,DQ,Chase Randolph,Little River Academy,67.31,122.47,,,,Single-ply,SBD,M
Boys,67.13,DQ,Ty Smith,Dripping Springs,65.68,163.29,83.91,,,Single-ply,SBD,M
Boys,67.13,DQ,Thomas Abraham,Austin Bowie,66.22,,,,,Single-ply,SBD,M
Boys,67.13,DQ,Brandon Jackson,College Station A&M Cons,66.04,190.51,,,,Single-ply,SBD,M
Boys,74.84,1,Marcus Orzabal,College Station A&M Cons,73.84,206.38,122.47,210.92,539.77,Single-ply,SBD,M
Boys,74.84,2,Royal Lucas,Taylor,67.77,190.51,108.86,219.99,519.36,Single-ply,SBD,M
Boys,74.84,3,Erik Estrada,Hutto,73.3,190.51,108.86,217.72,517.1,Single-ply,SBD,M
Boys,74.84,4,Zach Robinson #2,Salado,72.48,190.51,111.13,190.51,492.15,Single-ply,SBD,M
Boys,74.84,5,Laravis Blunson,Taylor,72.62,190.51,106.59,174.63,471.74,Single-ply,SBD,M
Boys,74.84,6,Maquel Davis,Manor,72.21,142.88,108.86,188.24,439.98,Single-ply,SBD,M
Boys,74.84,7,Kyle Castilleja,Hearne,68.08,147.42,88.45,199.58,435.45,Single-ply,SBD,M
Boys,74.84,8,Ray Hall,Manor,74.3,142.88,92.99,183.7,419.57,Single-ply,SBD,M
Boys,74.84,9,Aivery Scheffer,Leander,74.57,147.42,83.91,156.49,387.82,Single-ply,SBD,M
Boys,74.84,10,Zach Evans,Elgin,67.68,133.81,83.91,147.42,365.14,Single-ply,SBD,M
Boys,74.84,11,Colton Austin,Hutto,72.67,131.54,77.11,149.69,358.34,Single-ply,SBD,M
Boys,74.84,12,Paul Hoover,Hutto,70.13,120.2,90.72,142.88,353.8,Single-ply,SBD,M
Boys,74.84,13,Eduardo Mendoza,Pflugerville,73.66,102.06,102.06,149.69,353.8,Single-ply,SBD,M
Boys,74.84,14,Drew Jones,Elgin,69.58,140.61,83.91,120.2,344.73,Single-ply,SBD,M
Boys,74.84,15,Chris Gutierrez,Hutto,71.21,117.93,77.11,136.08,331.12,Single-ply,SBD,M
Boys,74.84,16,Braxton Buchannan,Hutto,71.85,113.4,86.18,111.13,310.71,Single-ply,SBD,M
Boys,74.84,17,Daniel Rangel,Del Valle,71.94,102.06,68.04,129.27,299.37,Single-ply,SBD,M
Boys,74.84,DQ,Cameron Bartosh,Hutto,68.13,127.01,,,,Single-ply,SBD,M
Boys,74.84,DQ,David Cortez,Jarrell,71.58,181.44,,,,Single-ply,SBD,M
Boys,74.84,DQ,Josh Scherer,Little River Academy,74.57,181.44,102.06,,,Single-ply,SBD,M
Boys,82.1,1,Joe Waithaka,College Station A&M Cons,81.74,254.01,142.88,235.87,632.76,Single-ply,SBD,M
Boys,82.1,2,Hunter Matlock,Austin Bowie,78.47,204.12,124.74,204.12,532.97,Single-ply,SBD,M
Boys,82.1,3,Marcus Cardenez,Jarrell,79.38,204.12,124.74,185.97,514.83,Single-ply,SBD,M
Boys,82.1,4,Tyrone Owens,Manor,81.37,199.58,111.13,197.31,508.02,Single-ply,SBD,M
Boys,82.1,5,Blake Nash,Salado,78.2,192.78,117.93,185.97,496.68,Single-ply,SBD,M
Boys,82.1,6,Kelly McBride,Del Valle,81.28,181.44,102.06,204.12,487.61,Single-ply,SBD,M
Boys,82.1,7,Luke Evans #2,Hutto,81.19,176.9,106.59,199.58,483.08,Single-ply,SBD,M
Boys,82.1,8,Chris Walker,Elgin,77.56,185.97,102.06,190.51,478.54,Single-ply,SBD,M
Boys,82.1,9,Michael Pacheco,Bastrop,79.02,185.97,115.67,176.9,478.54,Single-ply,SBD,M
Boys,82.1,10,Chase Mondrik,Little River Academy,80.01,161.03,115.67,199.58,476.27,Single-ply,SBD,M
Boys,82.1,11,Victor Mendoza,Hearne,79.65,170.1,113.4,190.51,474,Single-ply,SBD,M
Boys,82.1,12,Demetrius Hood,Leander,79.29,176.9,92.99,183.7,453.59,Single-ply,SBD,M
Boys,82.1,13,Tyler Minnick,Hutto,80.83,156.49,106.59,167.83,430.91,Single-ply,SBD,M
Boys,82.1,14,Jordan Andrews,Hutto,77.11,140.61,106.59,158.76,405.97,Single-ply,SBD,M
Boys,82.1,15,Steven Louterback,Dripping Springs,80.38,156.49,86.18,163.29,405.97,Single-ply,SBD,M
Boys,82.1,16,Zach Weseman,Hutto,82.1,138.35,92.99,170.1,401.43,Single-ply,SBD,M
Boys,89.81,17,Duane Howard,Bastrop,82.28,149.69,102.06,149.69,401.43,Single-ply,SBD,M
Boys,82.1,18,Tyrae Ihonvbere,Manor,76.02,147.42,83.91,165.56,396.89,Single-ply,SBD,M
Boys,82.1,19,Darrel Okereke,Pflugerville,79.65,142.88,92.99,142.88,378.75,Single-ply,SBD,M
Boys,82.1,20,Hunter Ellis,Dripping Springs,81.83,142.88,88.45,145.15,376.48,Single-ply,SBD,M
Boys,82.1,21,Nick Graner,Dripping Springs,80.92,131.54,83.91,158.76,374.21,Single-ply,SBD,M
Boys,82.1,22,Devin Taylor,Taylor,80.83,133.81,83.91,145.15,362.87,Single-ply,SBD,M
Boys,82.1,23,Jj Martinez,Elgin,75.48,133.81,79.38,138.35,351.53,Single-ply,SBD,M
Boys,82.1,24,Dominic Robledo,Del Valle,78.02,120.2,68.04,127.01,315.25,Single-ply,SBD,M
Boys,82.1,DQ,Hayden Ramsey,Leander,78.65,161.03,102.06,,,Single-ply,SBD,M
Boys,82.1,DQ,Ernesto Jaime,Jarrell,78.74,208.65,,,,Single-ply,SBD,M
Boys,99.79,1,Leo Castro,Elgin,90.04,272.16,174.63,278.96,725.75,Single-ply,SBD,M
Boys,89.81,2,DJ Levias,College Station A&M Cons,87.45,263.08,151.95,263.08,678.12,Single-ply,SBD,M
Boys,89.81,3,Jamie Czajkowski,Rockdale,86.82,240.4,161.03,204.12,605.55,Single-ply,SBD,M
Boys,89.81,4,Michael Clouston,College Station A&M Cons,89.09,231.33,127.01,215.46,573.79,Single-ply,SBD,M
Boys,89.81,5,Mikey Sellers,Salado,86.64,235.87,136.08,199.58,571.53,Single-ply,SBD,M
Boys,89.81,6,Marcus Mesta,Manor,88,219.99,122.47,199.58,542.04,Single-ply,SBD,M
Boys,89.81,7,Otis Jordan,Killeen Shoemaker,89.36,215.46,131.54,195.04,542.04,Single-ply,SBD,M
Boys,89.81,8,Johnny Jefferson,Killeen Shoemaker,84.73,201.85,117.93,195.04,514.83,Single-ply,SBD,M
Boys,89.81,9,Jonathan Massey,Killeen Shoemaker,88.36,181.44,108.86,222.26,512.56,Single-ply,SBD,M
Boys,89.81,10,Sean McGrew,Hearne,83.37,195.04,111.13,204.12,510.29,Single-ply,SBD,M
Boys,89.81,11,Johnathan Johnson,Manor,83.1,170.1,120.2,210.92,501.22,Single-ply,SBD,M
Boys,89.81,12,Nick Johnson,Hearne,85.28,170.1,115.67,204.12,489.88,Single-ply,SBD,M
Boys,89.81,13,John Spurgeon,Liberty Hill,84.28,199.58,115.67,163.29,478.54,Single-ply,SBD,M
Boys,89.81,14,Ryan Mercado,Austin Bowie,89.36,161.03,108.86,183.7,453.59,Single-ply,SBD,M
Boys,89.81,15,Albert Walker,Pflugerville,84.37,161.03,120.2,170.1,451.32,Single-ply,SBD,M
Boys,89.81,16,Luis Villafranco,Salado,86.09,170.1,95.25,174.63,439.98,Single-ply,SBD,M
Boys,89.81,17,Derek Breazeale,Little River Academy,85.28,156.49,106.59,163.29,426.38,Single-ply,SBD,M
Boys,89.81,18,Steven Cuellar,Taylor,86.59,151.95,81.65,185.97,419.57,Single-ply,SBD,M
Boys,89.81,19,De'Ellison Aych,Elgin,86.36,129.27,102.06,181.44,412.77,Single-ply,SBD,M
Boys,89.81,20,Cody Offield,Hutto,87.59,129.27,88.45,140.61,358.34,Single-ply,SBD,M
Boys,89.81,21,Milton Callazo,Killeen Shoemaker,87.45,133.81,95.25,124.74,353.8,Single-ply,SBD,M
Boys,99.79,DQ,Shawn Dehart,Liberty Hill,89.99,215.46,115.67,,,Single-ply,SBD,M
Boys,89.81,DQ,Ty Kirk,Rockdale,86.95,,,,,Single-ply,SBD,M
Boys,89.81,DQ,Dominique Brisco,Manor,87.63,,,,,Single-ply,SBD,M
Boys,99.79,1,Luis Garcia #2,College Station A&M Cons,92.22,238.14,147.42,226.8,612.35,Single-ply,SBD,M
Boys,109.77,2,Chasin Allen,Hutto,99.97,195.04,104.33,219.99,519.36,Single-ply,SBD,M
Boys,99.79,3,Tevin Dillard,Manor,96.62,183.7,124.74,204.12,512.56,Single-ply,SBD,M
Boys,99.79,4,Will Smith #2,Liberty Hill,93.98,201.85,122.47,176.9,501.22,Single-ply,SBD,M
Boys,99.79,5,Colin McMillan,Little River Academy,97.98,167.83,113.4,217.72,498.95,Single-ply,SBD,M
Boys,99.79,6,Collin Filapiando,Bastrop,97.16,183.7,124.74,174.63,483.08,Single-ply,SBD,M
Boys,99.79,7,Avery McThomson,Dripping Springs,95.89,185.97,115.67,179.17,480.81,Single-ply,SBD,M
Boys,99.79,8,Michael Rodriguez #2,Hutto,92.62,174.63,88.45,181.44,444.52,Single-ply,SBD,M
Boys,99.79,9,Tyler Talbot,Salado,90.26,154.22,92.99,154.22,401.43,Single-ply,SBD,M
Boys,99.79,10,Hunter Gordon,Elgin,97.98,129.27,95.25,156.49,381.02,Single-ply,SBD,M
Boys,99.79,11,Jacob Popple,Salado,96.43,136.08,74.84,145.15,356.07,Single-ply,SBD,M
Boys,99.79,DQ,Brian Branecky,Bastrop,94.44,,,,,Single-ply,SBD,M
Boys,109.77,1,Wyatt Smith,College Station A&M Cons,108.86,272.16,142.88,226.8,641.83,Single-ply,SBD,M
Boys,109.77,2,Billy Golding,Salado,107.41,263.08,136.08,235.87,635.03,Single-ply,SBD,M
Boys,124.74,3,Johnny Jones,Elgin,109.86,256.28,142.88,215.46,614.62,Single-ply,SBD,M
Boys,109.77,4,Kevin Abercrombie,Little River Academy,103.42,254.01,136.08,215.46,605.55,Single-ply,SBD,M
Boys,109.77,5,Dan Goldman,Salado,109.59,260.82,124.74,219.99,605.55,Single-ply,SBD,M
Boys,124.74,6,Kyle Kavanaugh,College Station A&M Cons,109.86,265.35,120.2,217.72,603.28,Single-ply,SBD,M
Boys,109.77,7,Vincent Hernandez,Liberty Hill,106.91,235.87,122.47,201.85,560.19,Single-ply,SBD,M
Boys,109.77,8,Tycom Wright,Taylor,109.32,201.85,113.4,204.12,519.36,Single-ply,SBD,M
Boys,109.77,9,Chris Jones #18,Killeen Shoemaker,109.04,204.12,115.67,172.37,492.15,Single-ply,SBD,M
Boys,109.77,10,Jody Hodges,Salado,108.23,226.8,97.52,165.56,489.88,Single-ply,SBD,M
Boys,109.77,11,Stewart Matos,Killeen Shoemaker,109.68,190.51,111.13,181.44,483.08,Single-ply,SBD,M
Boys,109.77,12,Manny Jarimilo,Manor,103.96,190.51,102.06,174.63,467.2,Single-ply,SBD,M
Boys,109.77,13,Kc Candelaria,Del Valle,106.96,165.56,102.06,188.24,455.86,Single-ply,SBD,M
Boys,109.77,14,Jake Ramey,Dripping Springs,102.78,158.76,106.59,181.44,446.79,Single-ply,SBD,M
Boys,109.77,15,Ross Hufstedler,Pflugerville,108.5,161.03,106.59,156.49,424.11,Single-ply,SBD,M
Boys,109.77,16,Tyler Kemp,Killeen Shoemaker,108.86,124.74,86.18,120.2,331.12,Single-ply,SBD,M
Boys,124.74,DQ,Jj Bynum,College Station A&M Cons,124.01,,,,,Single-ply,SBD,M
Boys,124.74,2,Clayton Anderson,Elgin,112.67,272.16,163.29,256.28,691.73,Single-ply,SBD,M
Boys,124.74,3,Anthony Rivera,Bastrop,120.84,229.06,99.79,183.7,512.56,Single-ply,SBD,M
Boys,124.74,4,Jimmy DeLeon,Manor,116.94,210.92,113.4,183.7,508.02,Single-ply,SBD,M
Boys,124.74,5,Marcus Hudson,Manor,112.94,183.7,92.99,213.19,489.88,Single-ply,SBD,M
Boys,124.74,6,Sebastion Garica,Dripping Springs,114.49,195.04,88.45,181.44,464.93,Single-ply,SBD,M
Boys,124.74,7,Michel White,Austin Bowie,117.07,158.76,108.86,185.97,453.59,Single-ply,SBD,M
Boys,124.74+,1,Jacob Shanks,Elgin,150.14,231.33,149.69,242.67,623.69,Single-ply,SBD,M
Boys,124.74+,2,Tj Valentine,Killeen Shoemaker,135.62,231.33,138.35,235.87,605.55,Single-ply,SBD,M
Boys,124.74+,3,Tyrone Newsom,Killeen Shoemaker,128.19,215.46,136.08,204.12,555.65,Single-ply,SBD,M
Boys,124.74+,4,Derek Bedal,Bastrop,131.45,195.04,151.95,179.17,526.17,Single-ply,SBD,M
Boys,124.74+,5,Jordan Davis #5,Bastrop,138.75,158.76,77.11,133.81,369.68,Single-ply,SBD,M
Boys,124.74+,DQ,Jacob Jimmerson,Salado,127.73,199.58,97.52,,,Single-ply,SBD,M
