Event,Sex,Name,Country,State,BodyweightKg,WeightClassKg,Division,Best3SquatKg,Best3BenchKg,Best3DeadliftKg,TotalKg,Equipment,Place
B,M,Dave Guthrie,,SK,88.5,90,Open,,130,,130,Single-ply,1
B,M,Bob Reid,,SK,87.8,90,Open,,115,,115,Single-ply,2
B,M,Terry Hardy,,SK,82.5,82.5,Open,,167.5,,167.5,Single-ply,2
B,F,Susan Prefontaine,,MB,77.2,82.5,Open,,67.5,,67.5,Single-ply,1
B,M,Louis Lévesque,,QC,80.9,82.5,Open,,112.5,,112.5,Single-ply,8
B,M,Earle Harding,,SK,81.5,82.5,Open,,142.5,,142.5,Single-ply,4
B,F,Denise Ouelette,,QC,75.5,82.5,Open,,55,,55,Single-ply,2
B,M,Darryl Folk,,SK,81.4,82.5,Open,,137.5,,137.5,Single-ply,5
B,M,Dan Kram,,BC,81.1,82.5,Open,,155,,155,Single-ply,3
B,M,Craig Angus,,SK,77.5,82.5,Open,,125,,125,Single-ply,7
B,M,Bruce Markham,,MB,82.4,82.5,Open,,175,,175,Single-ply,1
B,M,Bob Foster,,SK,79,82.5,Open,,135,,135,Single-ply,6
B,M,Rick Marshall #1,,MB,74,75,Open,,172.5,,172.5,Single-ply,1
B,F,Kim Dennis,,BC,69,75,Open,,77.5,,77.5,Single-ply,4
B,F,Karen Wilkinson,USA,IN,73.7,75,Open,,112.5,,112.5,Single-ply,1
B,F,Irene King,,NL,74.6,75,Open,,102.5,,102.5,Single-ply,2
B,M,Gabe Festing,,BC,72,75,Open,,140,,140,Single-ply,2
B,F,Carole Vachon,,AB,74.2,75,Open,,80,,80,Single-ply,3
B,M,Brian Desjarlais,,SK,74.4,75,Open,,140,,140,Single-ply,3
B,M,Bob Mann,,MB,74.8,75,Open,,137.5,,137.5,Single-ply,4
B,M,Richard Lush,,NL,66.8,67.5,Open,,127.5,,127.5,Single-ply,2
B,F,Patsy Noble,,SK,65.9,67.5,Open,,77.5,,77.5,Single-ply,3
B,F,Nancy Carpenter,,BC,64,67.5,Open,,62.5,,62.5,Single-ply,4
B,F,Mariam Power,,BC,66.9,67.5,Open,,87.5,,87.5,Single-ply,2
B,F,Glorianne Papolis,,ON,67.5,67.5,Open,,90,,90,Single-ply,1
B,M,Allan Gallant,,NS,65.8,67.5,Open,,132.5,,132.5,Single-ply,1
B,F,Lee-Ann Dalling,,NS,42.5,44,Open,,60,,60,Single-ply,1
B,M,Tim Griffith,,PE,143.7,125+,Open,,202.5,,202.5,Single-ply,1
B,M,Robert O. Smith,,BC,131.7,125+,Open,,175,,175,Single-ply,2
B,M,Denis Chassé,,QC,114.7,125,Open,,170,,170,Single-ply,1
B,M,Bert Merriman,,MB,110.1,125,Open,,155,,155,Single-ply,2
B,M,Terry Sharun,,AB,110,110,Open,,150,,150,Single-ply,4
B,M,Jerry Ramsey,,BC,107.2,110,Open,,185,,185,Single-ply,2
B,M,Danny Pinard,,AB,107.5,110,Open,,150,,150,Single-ply,3
B,M,Daniel Royer,,QC,108.7,110,Open,,207.5,,207.5,Single-ply,1
B,M,Brett Montague,,SK,101,110,Open,,127.5,,127.5,Single-ply,5
B,M,Wayne Cormier,,SK,99.6,100,Open,,180,,180,Single-ply,1
B,M,Ron Delaney,,NS,96.8,100,Open,,150,,150,Single-ply,5
B,M,Pat Montague,,SK,96,100,Open,,157.5,,157.5,Single-ply,4
B,M,Orvill Moorehouse,,BC,99,100,Open,,115,,115,Single-ply,6
B,M,Mike Lafontaine,,SK,98.8,100,Open,,175,,175,Single-ply,3
B,M,Brian Montague,,SK,98.9,100,Open,,177.5,,177.5,Single-ply,2
B,M,Craig Angus,,SK,77.5,82.5,Juniors,,125,,125,Single-ply,1
B,M,Gabe Festing,,BC,72,75,Juniors,,140,,140,Single-ply,1
B,F,Carole Vachon,,AB,74.2,75,Juniors,,80,,80,Single-ply,1
B,M,Brett Montague,,SK,101,110,Juniors,,127.5,,127.5,Single-ply,1
B,M,Pat Montague,,SK,96,100,Juniors,,157.5,,157.5,Single-ply,1
B,F,Susan Prefontaine,,MB,77.2,82.5,Masters 1,,67.5,,67.5,Single-ply,1
B,M,Louis Lévesque,,QC,80.9,82.5,Masters 1,,112.5,,112.5,Single-ply,3
B,M,Dan Kram,,BC,81.1,82.5,Masters 1,,155,,155,Single-ply,1
B,M,Bob Foster,,SK,79,82.5,Masters 1,,135,,135,Single-ply,2
B,F,Irene King,,NL,74.6,75,Masters 1,,102.5,,102.5,Single-ply,1
B,M,Brian Desjarlais,,SK,74.4,75,Masters 1,,140,,140,Single-ply,1
B,M,Bob Mann,,MB,74.8,75,Masters 1,,137.5,,137.5,Single-ply,2
B,F,Nancy Carpenter,,BC,64,67.5,Masters 1,,62.5,,62.5,Single-ply,1
B,M,Robert O. Smith,,BC,131.7,125+,Masters 2,,175,,175,Single-ply,1
B,M,Denis Chassé,,QC,114.7,125,Masters 1,,170,,170,Single-ply,1
B,M,Bert Merriman,,MB,110.1,125,Masters 1,,155,,155,Single-ply,2
B,M,Terry Sharun,,AB,110,110,Masters 1,,150,,150,Single-ply,4
B,M,Jerry Ramsey,,BC,107.2,110,Masters 1,,185,,185,Single-ply,2
B,M,Danny Pinard,,AB,107.5,110,Masters 1,,150,,150,Single-ply,3
B,M,Daniel Royer,,QC,108.7,110,Masters 1,,207.5,,207.5,Single-ply,1
B,M,Ron Delaney,,NS,96.8,100,Masters 1,,150,,150,Single-ply,2
B,M,Orvill Moorehouse,,BC,99,100,Masters 1,,115,,115,Single-ply,3
B,M,Brian Montague,,SK,98.9,100,Masters 1,,177.5,,177.5,Single-ply,1
