Division,WeightClassKg,Place,Name,Team,BodyweightKg,Best3SquatKg,Best3BenchKg,Best3DeadliftKg,TotalKg,Equipment,Event,Sex
Boys,51.71,1,Eduardo Segura,Pharr Valley View,51.71,113.4,68.04,129.27,310.71,Single-ply,SBD,M
Boys,51.71,2,Matthew Morales,Edinburg Quest College Prep,48.08,97.52,61.23,120.2,278.96,Single-ply,SBD,M
Boys,51.71,3,Diego Gonzalez,Mercedes,51.71,92.99,61.23,115.67,269.89,Single-ply,SBD,M
Boys,51.71,4,Cristobal DeLeon,La Villa,47.17,54.43,36.29,70.31,161.03,Single-ply,SBD,M
Boys,51.71,DQ,Ivan Perez,Edinburg Idea College Prep,51.48,111.13,,,,Single-ply,SBD,M
Boys,51.71,DQ,Jackson Littles,Edinburg Idea College Prep,51.71,92.99,,,,Single-ply,SBD,M
Boys,55.79,1,Esai Marez,Mission Sharyland,55.57,122.47,81.65,167.83,371.95,Single-ply,SBD,M
Boys,55.79,2,Christopher Payan,McAllen Memorial,55.79,102.06,83.91,136.08,322.05,Single-ply,SBD,M
Boys,55.79,3,Jesus Rosio,McAllen,54.88,113.4,61.23,108.86,283.5,Single-ply,SBD,M
Boys,55.79,4,Isaiah Trevino,McAllen,53.3,104.33,56.7,111.13,272.16,Single-ply,SBD,M
Boys,55.79,5,Ruben Saenz,McAllen Rowe,53.52,86.18,56.7,102.06,244.94,Single-ply,SBD,M
Boys,55.79,DQ,John M Gonzalez,Edcouch-Elsa,55.34,,,,,Single-ply,SBD,M
Boys,55.79,DQ,Angel Flores #2,Mercedes,55.79,,,,,Single-ply,SBD,M
Boys,59.87,1,Vicente Hernandez,Pharr Valley View,59.65,204.12,115.67,226.8,546.58,Single-ply,SBD,M
Boys,59.87,2,Marcos Chavez,Lyford,56.47,149.69,83.91,174.63,408.23,Single-ply,SBD,M
Boys,59.87,3,Alex Hernandez #13,Edcouch-Elsa,59.42,154.22,90.72,154.22,399.16,Single-ply,SBD,M
Boys,59.87,4,Jose Serna,Weslaco East,59.87,158.76,74.84,165.56,399.16,Single-ply,SBD,M
Boys,59.87,5,Austin Weise,McAllen Rowe,58.06,127.01,99.79,165.56,392.36,Single-ply,SBD,M
Boys,59.87,6,Giovan Colon,Mission Sharyland,59.87,136.08,74.84,145.15,356.07,Single-ply,SBD,M
Boys,59.87,7,Jesse Cuevas,Edinburg,59.19,86.18,79.38,113.4,278.96,Single-ply,SBD,M
Boys,67.13,1,Oscar Monjaraz,Pharr Valley View,66.45,231.33,117.93,222.26,571.53,Single-ply,SBD,M
Boys,67.13,2,Josh Zamora,Weslaco East,67.13,174.63,120.2,181.44,476.27,Single-ply,SBD,M
Boys,67.13,3,Jesse Garza,Edcouch-Elsa,67.13,174.63,113.4,151.95,439.98,Single-ply,SBD,M
Boys,67.13,4,Kiplin Calahan,McAllen,66,170.1,97.52,170.1,437.72,Single-ply,SBD,M
Boys,67.13,5,Marcelo Pintos,McAllen Memorial,66.68,172.37,102.06,163.29,437.72,Single-ply,SBD,M
Boys,67.13,6,Alex Sanchez,Edinburg,65.32,158.76,99.79,174.63,433.18,Single-ply,SBD,M
Boys,67.13,7,Juan Arredondo,McAllen Memorial,65.32,154.22,99.79,176.9,430.91,Single-ply,SBD,M
Boys,67.13,8,Jacob Jimenez,Edinburg Quest College Prep,65.54,158.76,77.11,158.76,394.63,Single-ply,SBD,M
Boys,67.13,9,Anthony de Leon,Edinburg Quest College Prep,66.22,129.27,74.84,183.7,387.82,Single-ply,SBD,M
Boys,67.13,10,Leo Cuellar,Pharr Valley View,65.77,142.88,88.45,131.54,362.87,Single-ply,SBD,M
Boys,67.13,11,Ed Bermudez,Lyford,63.5,113.4,79.38,136.08,328.85,Single-ply,SBD,M
Boys,74.84,1,Elias Munoz,Edcouch-Elsa,74.39,249.48,149.69,247.21,646.37,Single-ply,SBD,M
Boys,74.84,2,Gilbert Guajardo,Pharr Valley View,74.62,226.8,136.08,233.6,596.47,Single-ply,SBD,M
Boys,74.84,3,Mike Adameit,Lyford,74.16,226.8,115.67,206.38,548.85,Single-ply,SBD,M
Boys,74.84,4,Jorge Cavazos,Mercedes,68.49,195.04,127.01,195.04,517.1,Single-ply,SBD,M
Boys,74.84,5,Shehryar Khursheed,Edinburg Quest College Prep,70.08,165.56,115.67,215.46,496.68,Single-ply,SBD,M
Boys,74.84,6,Francisco Gutierrez,McAllen,68.95,183.7,122.47,183.7,489.88,Single-ply,SBD,M
Boys,74.84,7,Dominic Ramos,Rio Hondo,69.17,183.7,117.93,183.7,485.34,Single-ply,SBD,M
Boys,74.84,8,Angel Mendez #1,Edinburg,74.62,158.76,113.4,199.58,471.74,Single-ply,SBD,M
Boys,74.84,9,Jacob Sanchez,Lyford,70.53,183.7,97.52,181.44,462.66,Single-ply,SBD,M
Boys,74.84,10,Lozano Andrew,Edinburg Quest College Prep,74.84,158.76,92.99,183.7,435.45,Single-ply,SBD,M
Boys,74.84,11,Michael Lopez,Edinburg,71.67,147.42,99.79,174.63,421.84,Single-ply,SBD,M
Boys,74.84,12,Julian Hernandez,McAllen Memorial,72.57,142.88,104.33,142.88,390.09,Single-ply,SBD,M
Boys,74.84,13,Diego Silva,McAllen Rowe,68.49,142.88,90.72,147.42,381.02,Single-ply,SBD,M
Boys,74.84,14,André Garcia #3,Lyford,74.84,142.88,83.91,147.42,374.21,Single-ply,SBD,M
Boys,74.84,15,Jaaziel Espinoza,McAllen,67.36,136.08,74.84,129.27,340.19,Single-ply,SBD,M
Boys,74.84,DQ,George Almanza,Edinburg Economedes,73.03,190.51,120.2,,,Single-ply,SBD,M
Boys,74.84,DQ,Adrian Degollado,Edinburg Quest College Prep,74.62,,,,,Single-ply,SBD,M
Boys,74.84,DQ,Robert Vera,Weslaco East,74.84,,,,,Single-ply,SBD,M
Boys,74.84,DQ,Eric Hinojosa,Mercedes,73.71,188.24,124.74,,,Single-ply,SBD,M
Boys,74.84,DQ,Frank Moreno,Lyford,74.62,188.24,115.67,,,Single-ply,SBD,M
Boys,82.1,1,Rigo Ayala,Edcouch-Elsa,81.65,249.48,163.29,233.6,646.37,Single-ply,SBD,M
Boys,82.1,2,Salvador Castillo,Mission Sharyland,80.06,244.94,124.74,265.35,635.03,Single-ply,SBD,M
Boys,82.1,3,Michael Escamilla,Edinburg,80.06,195.04,138.35,217.72,551.11,Single-ply,SBD,M
Boys,82.1,4,Frank Aleman,Weslaco East,82.1,204.12,138.35,204.12,546.58,Single-ply,SBD,M
Boys,82.1,5,JC Escamilla,McAllen Memorial,79.38,215.46,131.54,183.7,530.7,Single-ply,SBD,M
Boys,82.1,6,Andrew Cantu,Mission Sharyland,79.15,201.85,111.13,201.85,514.83,Single-ply,SBD,M
Boys,82.1,7,Justin Flores,Rio Hondo,80.74,174.63,131.54,181.44,487.61,Single-ply,SBD,M
Boys,82.1,8,Alex Cuevas #3,Edinburg Economedes,82.1,170.1,102.06,185.97,458.13,Single-ply,SBD,M
Boys,82.1,9,Ulyses Vasquuez,McAllen Memorial,78.47,147.42,120.2,185.97,453.59,Single-ply,SBD,M
Boys,82.1,10,Lorenzo Reyes,Edinburg,82.1,129.27,115.67,170.1,415.04,Single-ply,SBD,M
Boys,82.1,11,Diego Alvarez,Mission Sharyland,81.42,151.95,68.04,188.24,408.23,Single-ply,SBD,M
Boys,82.1,12,Joel Garcia,Pharr Valley View,80.74,161.03,74.84,158.76,394.63,Single-ply,SBD,M
Boys,82.1,13,Mauro Arrieta,Edinburg,78.02,133.81,88.45,156.49,378.75,Single-ply,SBD,M
Boys,82.1,14,Julian Rodriguez,Edinburg Idea College Prep,79.61,113.4,74.84,136.08,324.32,Single-ply,SBD,M
Boys,82.1,15,John Contreras,La Villa,75.98,83.91,49.9,95.25,229.06,Single-ply,SBD,M
Boys,82.1,DQ,Gaston Castellanos,Rio Hondo,80.97,,,,,Single-ply,SBD,M
Boys,82.1,DQ,Fernando Garza,Weslaco East,82.1,,,,,Single-ply,SBD,M
Boys,82.1,DQ,Brandon Mireles,Mission Sharyland,77.11,163.29,81.65,,,Single-ply,SBD,M
Boys,89.81,1,Seth Garcia,Edcouch-Elsa,87.54,294.84,167.83,283.5,746.16,Single-ply,SBD,M
Boys,89.81,2,Norby Fuentes,Edcouch-Elsa,88.9,226.8,165.56,183.7,576.06,Single-ply,SBD,M
Boys,89.81,3,Osvaldo Gomez,Edinburg Economedes,87.32,204.12,138.35,226.8,569.26,Single-ply,SBD,M
Boys,89.81,4,Joel Moreno,Mission Sharyland,88.22,201.85,124.74,238.14,564.72,Single-ply,SBD,M
Boys,89.81,5,Roger Adame,Mercedes,86.86,213.19,124.74,217.72,555.65,Single-ply,SBD,M
Boys,89.81,6,Pedro Padron,Rio Hondo,88,215.46,124.74,201.85,542.04,Single-ply,SBD,M
Boys,89.81,7,Bryan Smith #4,Mercedes,84.37,190.51,142.88,188.24,521.63,Single-ply,SBD,M
Boys,89.81,8,Edgar Arrevelo,Edinburg,84.59,174.63,117.93,213.19,505.76,Single-ply,SBD,M
Boys,89.81,9,Mario Cervantes,McAllen Rowe,88.45,163.29,117.93,217.72,498.95,Single-ply,SBD,M
Boys,89.81,10,Jovany Mendez,Lyford,88,181.44,124.74,185.97,492.15,Single-ply,SBD,M
Boys,89.81,11,Sergio Sanchez,McAllen Memorial,85.96,158.76,113.4,204.12,476.27,Single-ply,SBD,M
Boys,89.81,12,Antonio Rodriguez,McAllen,87.32,174.63,104.33,185.97,464.93,Single-ply,SBD,M
Boys,89.81,13,Matthew Vela,Weslaco East,87.09,170.1,102.06,174.63,446.79,Single-ply,SBD,M
Boys,89.81,14,Dylan Earhart,Edinburg Economedes,85.05,149.69,83.91,147.42,381.02,Single-ply,SBD,M
Boys,89.81,15,Henry Rocha,Lyford,83.69,83.91,56.7,102.06,242.67,Single-ply,SBD,M
Boys,89.81,DQ,Rene Aza,Weslaco East,86.18,142.88,,,,Single-ply,SBD,M
Boys,89.81,DQ,Pedro Hernandez,Rio Hondo,85.28,,,,,Single-ply,SBD,M
Boys,99.79,1,Elijah Sanchez,Edcouch-Elsa,98.88,263.08,176.9,240.4,680.39,Single-ply,SBD,M
Boys,99.79,2,Gerald Salinas,Edcouch-Elsa,98.88,240.4,149.69,222.26,612.35,Single-ply,SBD,M
Boys,99.79,3,Pat Esquivel,Edinburg Economedes,97.75,229.06,142.88,219.99,591.94,Single-ply,SBD,M
Boys,99.79,4,Juan Cuellar,Edinburg,92.08,231.33,147.42,199.58,578.33,Single-ply,SBD,M
Boys,99.79,5,Jacob Banda,Weslaco East,99.79,204.12,129.27,226.8,560.19,Single-ply,SBD,M
Boys,99.79,6,Juan Delgado,Rio Hondo,99.56,210.92,133.81,199.58,544.31,Single-ply,SBD,M
Boys,99.79,7,Lupe Garcia,Rio Hondo,98.66,199.58,106.59,226.8,532.97,Single-ply,SBD,M
Boys,99.79,8,Amadeo Salinas,McAllen,92.53,165.56,131.54,165.56,462.66,Single-ply,SBD,M
Boys,99.79,9,Severo Cruz,Edinburg Economedes,95.03,151.95,115.67,188.24,455.86,Single-ply,SBD,M
Boys,99.79,10,Sergio Valdez,McAllen Rowe,99.79,158.76,113.4,172.37,444.52,Single-ply,SBD,M
Boys,99.79,11,Norberto Salinas,McAllen Rowe,95.25,142.88,113.4,167.83,424.11,Single-ply,SBD,M
Boys,99.79,DQ,Micael Gutierrez,Mercedes,95.71,,,,,Single-ply,SBD,M
Boys,99.79,DQ,Josh Williams,Mission Sharyland,97.07,,,,,Single-ply,SBD,M
Boys,99.79,DQ,Angel Gutierrez,Pharr Valley View,97.75,149.69,,,,Single-ply,SBD,M
Boys,99.79,DQ,Gerald Garza,Weslaco East,95.71,,,,,Single-ply,SBD,M
Boys,99.79,DQ,Hugo Velásquez,Edinburg Economedes,93.44,138.35,,,,Single-ply,SBD,M
Boys,99.79,DQ,Jose Hernandez #11,La Villa,99.56,,,,,Single-ply,SBD,M
Boys,99.79,DQ,Joey Ramirez,La Villa,96.84,,,,,Single-ply,SBD,M
Boys,109.77,1,Eddie Gomez,Edcouch-Elsa,107.95,294.84,158.76,272.16,725.75,Single-ply,SBD,M
Boys,109.77,2,Angel Almanza,Weslaco East,108.73,238.14,161.03,226.8,625.96,Single-ply,SBD,M
Boys,109.77,3,Juan Diaz,Edinburg,104.1,231.33,133.81,201.85,566.99,Single-ply,SBD,M
Boys,109.77,4,Jorge Soto,Edcouch-Elsa,108.86,215.46,158.76,192.78,566.99,Single-ply,SBD,M
Boys,109.77,5,Freddy Valdez,Edinburg,103.42,201.85,136.08,217.72,555.65,Single-ply,SBD,M
Boys,109.77,6,Alan Hernandez #2,McAllen Rowe,109.32,190.51,131.54,217.72,539.77,Single-ply,SBD,M
Boys,109.77,7,Jerome Torres,McAllen Memorial,107.95,201.85,138.35,192.78,532.97,Single-ply,SBD,M
Boys,109.77,8,Hiram Chavez,McAllen Rowe,103.42,151.95,111.13,158.76,421.84,Single-ply,SBD,M
Boys,124.74,1,Teodoro Garcia,McAllen Memorial,114.99,272.16,181.44,238.14,691.73,Single-ply,SBD,M
Boys,124.74,2,Ricky Estimbo,Edcouch-Elsa,122.47,278.96,156.49,231.33,666.78,Single-ply,SBD,M
Boys,124.74,3,Fabian Castillo,Edinburg Economedes,117.48,235.87,149.69,226.8,612.35,Single-ply,SBD,M
Boys,124.74,4,Marcos Garza,Edinburg Economedes,114.99,226.8,136.08,219.99,582.87,Single-ply,SBD,M
Boys,124.74,5,Manny Hernandez,Rio Hondo,115.67,238.14,133.81,183.7,555.65,Single-ply,SBD,M
Boys,124.74,6,Marcos Martinez,Weslaco East,122.47,219.99,138.35,183.7,542.04,Single-ply,SBD,M
Boys,124.74,7,Arturo Ochoa,McAllen,121.34,204.12,142.88,183.7,530.7,Single-ply,SBD,M
Boys,124.74,8,Gerardo Lopez,McAllen,113.85,183.7,124.74,151.95,460.4,Single-ply,SBD,M
Boys,124.74,9,Enrique Guajardo,Pharr Valley View,123.83,163.29,102.06,165.56,430.91,Single-ply,SBD,M
Boys,124.74,DQ,Gerardo Cantu,Pharr Valley View,122.02,,,,,Single-ply,SBD,M
Boys,124.74,DQ,Troy Macias,Rio Hondo,117.03,,,,,Single-ply,SBD,M
Boys,124.74,DQ,Ben Flores,Rio Hondo,118.61,,,,,Single-ply,SBD,M
Boys,124.74,DQ,Dustin Valdez,Mercedes,119.52,,,,,Single-ply,SBD,M
Boys,124.74,DQ,Orlando Cabrerra,Weslaco East,124.28,,,,,Single-ply,SBD,M
Boys,124.74,DQ,Robert De Leon,Lyford,111.58,,,,,Single-ply,SBD,M
Boys,124.74+,1,Julio Contreras,Edcouch-Elsa,125.19,340.19,167.83,299.37,807.39,Single-ply,SBD,M
Boys,124.74+,2,Aaron Rivera,McAllen Rowe,162.84,226.8,172.37,233.6,632.76,Single-ply,SBD,M
Boys,124.74+,3,Zack Hettler,McAllen,136.98,165.56,138.35,158.76,462.66,Single-ply,SBD,M
Boys,124.74+,DQ,Justin Garcia,Lyford,129.05,,,,,Single-ply,SBD,M
