Division,WeightClassKg,Place,Name,Team,BodyweightKg,Best3SquatKg,Best3BenchKg,Best3DeadliftKg,TotalKg,Equipment,Event,Sex
Boys,51.71,1,Jeremy Charles,Willis,51.71,106.59,72.57,113.4,292.57,Single-ply,SBD,M
Boys,55.79,2,Jared Smith,Conroe Oak Ridge,51.8,108.86,58.97,117.93,285.76,Single-ply,SBD,M
Boys,51.71,3,Jason Simmons,Madisonville,45.36,90.72,52.16,111.13,254.01,Single-ply,SBD,M
Boys,51.71,DQ,Trevor Lewing,Livingston,44,54.43,,,,Single-ply,SBD,M
Boys,55.79,1,Dalton Webb,Conroe Oak Ridge,55.7,154.22,88.45,151.95,394.63,Single-ply,SBD,M
Boys,55.79,2,Dominique Singletary,Cleveland,54.98,136.08,68.04,136.08,340.19,Single-ply,SBD,M
Boys,55.79,3,Victor Lara-Cortez,Corrigan-Camden,53.34,127.01,65.77,136.08,328.85,Single-ply,SBD,M
Boys,55.79,4,Justin Hill,Conroe The Woodlands,55.79,83.91,68.04,117.93,269.89,Single-ply,SBD,M
Boys,55.79,5,Dalton Goetzinger,Conroe The Woodlands,54.07,90.72,54.43,108.86,254.01,Single-ply,SBD,M
Boys,55.79,DQ,Jonathan Williams,Conroe,55.16,,,,,Single-ply,SBD,M
Boys,59.87,1,Rayford Ellis,Cleveland,56.97,165.56,113.4,165.56,444.52,Single-ply,SBD,M
Boys,59.87,2,Beau Burleson,Woodville,59.42,165.56,97.52,158.76,421.84,Single-ply,SBD,M
Boys,67.13,3,Thad Whigham,Woodville,60.06,147.42,90.72,158.76,396.89,Single-ply,SBD,M
Boys,59.87,4,Austin Alexander,Conroe Caney Creek,59.78,158.76,79.38,145.15,383.29,Single-ply,SBD,M
Boys,59.87,5,Izzy Figueroa,New Caney,57.88,154.22,70.31,151.95,376.48,Single-ply,SBD,M
Boys,59.87,6,Chris Cargile,Pasadena Memorial,59.42,136.08,68.04,172.37,376.48,Single-ply,SBD,M
Boys,59.87,7,Jim Kenton,New Caney,57.52,140.61,74.84,142.88,358.34,Single-ply,SBD,M
Boys,59.87,8,Justin Harris #3,Willis,59.33,136.08,74.84,142.88,353.8,Single-ply,SBD,M
Boys,59.87,9,Josh Vasquez,Cleveland,58.33,133.81,61.23,154.22,349.27,Single-ply,SBD,M
Boys,59.87,10,Patrick Parker,Corrigan-Camden,57.42,115.67,70.31,138.35,324.32,Single-ply,SBD,M
Boys,59.87,11,Adan Wehmeyer,Madisonville,59.24,95.25,72.57,113.4,281.23,Single-ply,SBD,M
Boys,67.13,DQ,Trevor Banaszak,Shepherd,60.06,172.37,,,,Single-ply,SBD,M
Boys,67.13,1,Juan Guerrero,Corrigan-Camden,66.59,195.04,104.33,188.24,487.61,Single-ply,SBD,M
Boys,67.13,2,Dustin Corkran,Magnolia West,63.96,181.44,102.06,192.78,476.27,Single-ply,SBD,M
Boys,67.13,3,Beto Dejesus,Corrigan-Camden,64.59,174.63,97.52,199.58,471.74,Single-ply,SBD,M
Boys,67.13,4,Conner Jung,Conroe,65.86,163.29,86.18,181.44,430.91,Single-ply,SBD,M
Boys,67.13,5,Ekikere Etokebe,New Caney,66.86,176.9,92.99,158.76,428.64,Single-ply,SBD,M
Boys,67.13,6,Steven Campos,Conroe,66.22,179.17,111.13,133.81,424.11,Single-ply,SBD,M
Boys,74.84,7,Robert Skellion,Conroe Caney Creek,67.31,136.08,102.06,174.63,412.77,Single-ply,SBD,M
Boys,67.13,8,Domonique Wilson,Willis,62.69,140.61,106.59,161.03,408.23,Single-ply,SBD,M
Boys,67.13,9,Zach Randolph,Willis,66.68,136.08,83.91,163.29,383.29,Single-ply,SBD,M
Boys,67.13,10,Erik Garza,Magnolia West,63.41,136.08,83.91,154.22,374.21,Single-ply,SBD,M
Boys,67.13,11,Kirby Nielsen,Livingston,66.5,149.69,83.91,136.08,369.68,Single-ply,SBD,M
Boys,67.13,12,Alex Jones,Shepherd,64.68,124.74,102.06,136.08,362.87,Single-ply,SBD,M
Boys,67.13,13,David Muñoz,Shepherd,66.13,102.06,92.99,165.56,360.61,Single-ply,SBD,M
Boys,74.84,14,Antonio Mora,Madisonville,67.31,131.54,90.72,136.08,358.34,Single-ply,SBD,M
Boys,67.13,15,Juan Chavarria,New Caney,66.32,127.01,95.25,131.54,353.8,Single-ply,SBD,M
Boys,67.13,16,Jared Flowers,Huffman Hargrave,64.68,120.2,83.91,140.61,344.73,Single-ply,SBD,M
Boys,67.13,17,Chris Carolan,Huntsville,64.86,113.4,83.91,142.88,340.19,Single-ply,SBD,M
Boys,67.13,18,Cain Amador,Conroe Oak Ridge,66.5,129.27,70.31,136.08,335.66,Single-ply,SBD,M
Boys,67.13,19,Jeremiah LaPaglia,New Caney,60.33,120.2,86.18,120.2,326.59,Single-ply,SBD,M
Boys,67.13,20,Richy Lyttle,New Caney,62.96,124.74,72.57,129.27,326.59,Single-ply,SBD,M
Boys,67.13,21,Jack Sparrow,Conroe Caney Creek,61.23,124.74,68.04,131.54,324.32,Single-ply,SBD,M
Boys,67.13,22,Aaron Valadez,Huntsville,63.78,88.45,83.91,111.13,283.5,Single-ply,SBD,M
Boys,67.13,23,Britton Real,Conroe The Woodlands,66.41,102.06,45.36,122.47,269.89,Single-ply,SBD,M
Boys,67.13,24,Bj Van Metca,Huffman Hargrave,64.14,65.77,56.7,74.84,197.31,Single-ply,SBD,M
Boys,74.84,1,Joshua Burleson,Conroe,74.48,192.78,99.79,185.97,478.54,Single-ply,SBD,M
Boys,74.84,2,Justin Eberly,Conroe Caney Creek,72.12,179.17,83.91,208.65,471.74,Single-ply,SBD,M
Boys,74.84,3,Blaine Todd,Pasadena Memorial,70.03,167.83,106.59,183.7,458.13,Single-ply,SBD,M
Boys,74.84,4,David Saucedo,Shepherd,69.4,174.63,102.06,170.1,446.79,Single-ply,SBD,M
Boys,74.84,5,Taylor Rigorer,Woodville,74.3,163.29,92.99,167.83,424.11,Single-ply,SBD,M
Boys,74.84,6,Cory Durbin,New Caney,67.59,170.1,113.4,138.35,421.84,Single-ply,SBD,M
Boys,74.84,7,Alfredo Gonzalez,Magnolia West,72.12,133.81,97.52,190.51,421.84,Single-ply,SBD,M
Boys,74.84,8,Josh Granados,Magnolia West,71.49,142.88,88.45,165.56,396.89,Single-ply,SBD,M
Boys,74.84,9,Jonathan Vargas,Conroe Oak Ridge,72.48,145.15,92.99,158.76,396.89,Single-ply,SBD,M
Boys,74.84,10,Justin Releford,Woodville,72.76,163.29,79.38,154.22,396.89,Single-ply,SBD,M
Boys,74.84,11,Cesar Yepis,New Caney,73.03,124.74,102.06,158.76,385.55,Single-ply,SBD,M
Boys,74.84,12,Aston Bailey,Huffman Hargrave,69.76,122.47,90.72,147.42,360.61,Single-ply,SBD,M
Boys,74.84,13,Juan Cuevas,Corrigan-Camden,69.13,136.08,77.11,142.88,356.07,Single-ply,SBD,M
Boys,74.84,14,Arthur Maxwell,Shepherd,72.67,129.27,74.84,147.42,351.53,Single-ply,SBD,M
Boys,74.84,15,Jordan Gonzalez,Corrigan-Camden,73.21,145.15,68.04,136.08,349.27,Single-ply,SBD,M
Boys,74.84,16,Dantre Leopaul,Pasadena Memorial,68.31,108.86,81.65,129.27,319.78,Single-ply,SBD,M
Boys,74.84,17,Austen Reaves,Conroe The Woodlands,68.67,106.59,61.23,133.81,301.64,Single-ply,SBD,M
Boys,74.84,18,David SanMiguel,Pasadena Memorial,73.75,115.67,72.57,111.13,299.37,Single-ply,SBD,M
Boys,74.84,DQ,Justin Kay,New Caney,73.21,165.56,,,,Single-ply,SBD,M
Boys,74.84,DQ,Hunter Clift,Splendora,72.48,192.78,,,,Single-ply,SBD,M
Boys,74.84,DQ,Eric Garnica,Madisonville,73.94,136.08,,,,Single-ply,SBD,M
Boys,74.84,DQ,Sammy Vaughn,Livingston,71.21,113.4,,,,Single-ply,SBD,M
Boys,74.84,DQ,Chris Salisbury,Conroe Caney Creek,72.3,165.56,,,,Single-ply,SBD,M
Boys,82.1,1,Zach Hohman,Conroe The Woodlands,76.2,285.76,156.49,210.92,653.17,Single-ply,SBD,M
Boys,82.1,2,Trent Langley,Conroe Oak Ridge,80.47,199.58,136.08,190.51,526.17,Single-ply,SBD,M
Boys,89.81,3,Nick Sweetland,Conroe The Woodlands,82.28,170.1,131.54,195.04,496.68,Single-ply,SBD,M
Boys,82.1,4,Blayne Elster,Livingston,82.1,197.31,104.33,185.97,487.61,Single-ply,SBD,M
Boys,82.1,5,Sebastian Riley,Conroe Caney Creek,78.47,192.78,115.67,174.63,483.08,Single-ply,SBD,M
Boys,82.1,6,Buddy Garza,Pasadena Memorial,80.83,181.44,104.33,192.78,478.54,Single-ply,SBD,M
Boys,82.1,7,Clint Platt,Corrigan-Camden,77.84,174.63,104.33,161.03,439.98,Single-ply,SBD,M
Boys,82.1,8,Clayton Moreland,Magnolia West,77.2,151.95,102.06,183.7,437.72,Single-ply,SBD,M
Boys,82.1,9,Devonte Mays,Livingston,79.29,167.83,95.25,170.1,433.18,Single-ply,SBD,M
Boys,82.1,10,Dustin Meadows,Cleveland,79.47,158.76,86.18,174.63,419.57,Single-ply,SBD,M
Boys,82.1,11,Macade Trim,Magnolia West,81.92,151.95,97.52,170.1,419.57,Single-ply,SBD,M
Boys,82.1,12,Chris Le,Madisonville,82.1,154.22,92.99,172.37,419.57,Single-ply,SBD,M
Boys,82.1,13,Chase Vogel,Conroe,77.02,158.76,90.72,163.29,412.77,Single-ply,SBD,M
Boys,82.1,14,Victor Villareal,Corrigan-Camden,75.39,161.03,95.25,145.15,401.43,Single-ply,SBD,M
Boys,82.1,15,Aaron Hodges,Huntsville,76.11,149.69,92.99,142.88,385.55,Single-ply,SBD,M
Boys,82.1,16,Adam Lively,Woodville,79.83,136.08,81.65,147.42,365.14,Single-ply,SBD,M
Boys,82.1,17,Corey Mitchell,Woodville,81.83,113.4,79.38,151.95,344.73,Single-ply,SBD,M
Boys,82.1,18,Anthony Norville,Pasadena Memorial,77.93,104.33,70.31,140.61,315.25,Single-ply,SBD,M
Boys,82.1,DQ,Lorenzo Ruiz,Splendora,78.47,104.33,,,,Single-ply,SBD,M
Boys,89.81,DQ,Eric Whitaker,Conroe The Woodlands,82.28,90.72,,,,Single-ply,SBD,M
Boys,89.81,1,Clint Ramirez,New Caney,87.27,226.8,158.76,233.6,619.15,Single-ply,SBD,M
Boys,89.81,2,Dasmine Whaley,Madisonville,86.36,204.12,124.74,226.8,555.65,Single-ply,SBD,M
Boys,89.81,3,Khiry Gray,Livingston,88.81,213.19,145.15,197.31,555.65,Single-ply,SBD,M
Boys,89.81,4,Ryan McClain,Livingston,82.74,183.7,113.4,217.72,514.83,Single-ply,SBD,M
Boys,89.81,5,Joey Johnson,Magnolia West,87.72,195.04,115.67,201.85,512.56,Single-ply,SBD,M
Boys,99.79,6,Zack Paulson,Magnolia West,89.9,199.58,115.67,197.31,512.56,Single-ply,SBD,M
Boys,89.81,7,Brandon Isbell,Conroe Caney Creek,89.36,199.58,124.74,183.7,508.02,Single-ply,SBD,M
Boys,89.81,8,Nathan Brantner,Splendora,88.9,174.63,142.88,181.44,498.95,Single-ply,SBD,M
Boys,89.81,9,Tanner Banaszak,Shepherd,88.81,183.7,115.67,190.51,489.88,Single-ply,SBD,M
Boys,89.81,10,Taylor Faridifar,Conroe,87.27,183.7,131.54,163.29,478.54,Single-ply,SBD,M
Boys,89.81,11,Ryan Cyr,Conroe Oak Ridge,86.82,165.56,108.86,192.78,467.2,Single-ply,SBD,M
Boys,89.81,12,Trey Annonson,Cleveland,87.63,183.7,108.86,170.1,462.66,Single-ply,SBD,M
Boys,89.81,13,Jacob Little,Splendora,84.01,176.9,102.06,181.44,460.4,Single-ply,SBD,M
Boys,89.81,14,Leonard Smith,Madisonville,85.73,165.56,92.99,195.04,453.59,Single-ply,SBD,M
Boys,89.81,15,Brandon Holmes,Conroe Caney Creek,86.09,165.56,102.06,179.17,446.79,Single-ply,SBD,M
Boys,89.81,16,Dalton Ramon,Huntsville,87.18,158.76,106.59,172.37,437.72,Single-ply,SBD,M
Boys,89.81,17,Adrian Lacy,Woodville,86.64,163.29,102.06,167.83,433.18,Single-ply,SBD,M
Boys,89.81,18,Eric Barcenas,Conroe,86.36,165.56,106.59,158.76,430.91,Single-ply,SBD,M
Boys,89.81,19,Doug Holder,Pasadena Memorial,85.91,142.88,97.52,176.9,417.3,Single-ply,SBD,M
Boys,89.81,20,Julien Taylor,Madisonville,88,156.49,83.91,165.56,405.97,Single-ply,SBD,M
Boys,89.81,21,Shane Witherspoon,Madisonville,87.18,138.35,95.25,149.69,383.29,Single-ply,SBD,M
Boys,89.81,22,Aaron Cardenas,Huffman Hargrave,89.18,142.88,70.31,163.29,376.48,Single-ply,SBD,M
Boys,99.79,23,Mark Love,Conroe The Woodlands,89.99,124.74,81.65,163.29,369.68,Single-ply,SBD,M
Boys,89.81,24,Austin Desautel,Madisonville,83.46,136.08,79.38,140.61,356.07,Single-ply,SBD,M
Boys,89.81,DQ,Johnathan Culp,Willis,87.09,190.51,,,,Single-ply,SBD,M
Boys,99.79,1,Mark Armstrong,Corrigan-Camden,98.52,254.01,142.88,215.46,612.35,Single-ply,SBD,M
Boys,99.79,2,Darren Stewart #1,Splendora,92.8,226.8,131.54,224.53,582.87,Single-ply,SBD,M
Boys,99.79,3,Josh Gutierrez,Magnolia West,98.79,231.33,124.74,226.8,582.87,Single-ply,SBD,M
Boys,99.79,4,Austin Haynes,Livingston,94.17,204.12,136.08,226.8,566.99,Single-ply,SBD,M
Boys,99.79,5,Dedreck Rucker,Conroe,90.9,201.85,111.13,226.8,539.77,Single-ply,SBD,M
Boys,99.79,6,Jacob Courvelle,Shepherd,99.06,192.78,122.47,204.12,519.36,Single-ply,SBD,M
Boys,99.79,7,Caleb Etheridge,New Caney,95.71,188.24,131.54,185.97,505.76,Single-ply,SBD,M
Boys,99.79,8,Alex Kendrick,Huffman Hargrave,93.53,195.04,92.99,199.58,487.61,Single-ply,SBD,M
Boys,99.79,9,Austin Galloway,Livingston,93.71,185.97,113.4,185.97,485.34,Single-ply,SBD,M
Boys,99.79,10,Kenny Furches,Conroe The Woodlands,98.52,183.7,104.33,170.1,458.13,Single-ply,SBD,M
Boys,99.79,11,Nathan Hailey,Madisonville,96.16,154.22,97.52,185.97,437.72,Single-ply,SBD,M
Boys,99.79,12,Devantaz Burrell,Corrigan-Camden,99.79,167.83,90.72,165.56,424.11,Single-ply,SBD,M
Boys,99.79,13,Anthony Presutti,Conroe Oak Ridge,98.7,158.76,102.06,154.22,415.04,Single-ply,SBD,M
Boys,99.79,14,Michael Rottger,Huntsville,91.35,136.08,102.06,142.88,381.02,Single-ply,SBD,M
Boys,99.79,15,Garrett Derouen,Woodville,90.17,127.01,90.72,147.42,365.14,Single-ply,SBD,M
Boys,99.79,16,Etheridge Brooks,Madisonville,95.89,129.27,88.45,136.08,353.8,Single-ply,SBD,M
Boys,99.79,DQ,Jason Granados,Magnolia West,96.98,,,,,Single-ply,SBD,M
Boys,99.79,DQ,Patrick McCloud,Conroe The Woodlands,93.08,,,,,Single-ply,SBD,M
Boys,99.79,DQ,Chad Campagna,Conroe,95.8,,,,,Single-ply,SBD,M
Boys,109.77,1,Bridge Blount,Huntsville,106.78,242.67,133.81,256.28,632.76,Single-ply,SBD,M
Boys,109.77,2,Shawn Mitchell,Woodville,109.59,249.48,145.15,226.8,621.42,Single-ply,SBD,M
Boys,109.77,3,Kevin Crew,Splendora,104.24,238.14,158.76,219.99,616.89,Single-ply,SBD,M
Boys,109.77,4,Joaquin Trevino,Splendora,101.51,233.6,165.56,188.24,587.4,Single-ply,SBD,M
Boys,109.77,5,Paul Brown,Conroe Oak Ridge,102.87,192.78,113.4,192.78,498.95,Single-ply,SBD,M
Boys,109.77,6,Mark McNeil,Pasadena Memorial,108.14,185.97,95.25,213.19,494.42,Single-ply,SBD,M
Boys,109.77,7,David Keirum,New Caney,108.68,192.78,104.33,176.9,474,Single-ply,SBD,M
Boys,109.77,8,Hayden Hasenbein,Conroe Oak Ridge,104.24,183.7,104.33,176.9,464.93,Single-ply,SBD,M
Boys,109.77,9,Steve Stone,Conroe,103.51,185.97,113.4,156.49,455.86,Single-ply,SBD,M
Boys,124.74,1,Travis Randell,Splendora,115.21,226.8,147.42,204.12,578.33,Single-ply,SBD,M
Boys,124.74,2,Rodolfo Nava,Corrigan-Camden,123.56,213.19,117.93,233.6,564.72,Single-ply,SBD,M
Boys,124.74,3,Charlie Courvelle,Shepherd,119.84,226.8,142.88,188.24,557.92,Single-ply,SBD,M
Boys,124.74,4,Glen Salisbury,Conroe Caney Creek,114.03,206.38,138.35,199.58,544.31,Single-ply,SBD,M
Boys,124.74,5,Levi Lunsford,Splendora,122.74,204.12,129.27,192.78,526.17,Single-ply,SBD,M
Boys,124.74,6,Tyler Hall,Huffman Hargrave,110.4,183.7,108.86,188.24,480.81,Single-ply,SBD,M
Boys,124.74,7,Miguel Banda,Cleveland,116.66,183.7,124.74,158.76,467.2,Single-ply,SBD,M
Boys,124.74,8,Ivan Estipona,New Caney,113.67,176.9,90.72,188.24,455.86,Single-ply,SBD,M
Boys,124.74,9,Coyde Hecker,Shepherd,110.68,192.78,92.99,158.76,444.52,Single-ply,SBD,M
Boys,124.74,10,Aaron West,Splendora,120.38,120.2,83.91,136.08,340.19,Single-ply,SBD,M
Boys,124.74,11,Tim Silva,Conroe The Woodlands,111.04,111.13,61.23,131.54,303.91,Single-ply,SBD,M
Boys,124.74,DQ,Taylor Hawthorne,Shepherd,112.49,133.81,,,,Single-ply,SBD,M
Boys,124.74,DQ,Julius Davila,Pasadena Memorial,121.83,226.8,154.22,,,Single-ply,SBD,M
Boys,124.74,DQ,Cory Kelley,Magnolia West,113.22,192.78,,,,Single-ply,SBD,M
Boys,124.74+,1,James Graham,Magnolia West,149.59,251.74,145.15,208.65,605.55,Single-ply,SBD,M
Boys,124.74+,2,Cullen Burch,Cleveland,136.89,244.94,140.61,183.7,569.26,Single-ply,SBD,M
Boys,124.74+,3,Justin Smith #18,New Caney,126.28,215.46,149.69,183.7,548.85,Single-ply,SBD,M
Boys,124.74+,4,Cody Britton,Conroe Caney Creek,136.08,190.51,138.35,192.78,521.63,Single-ply,SBD,M
Boys,124.74+,5,Ben Townes,Conroe Caney Creek,160.3,188.24,120.2,158.76,467.2,Single-ply,SBD,M
Boys,124.74+,6,Kyle Rogers,Madisonville,152.59,111.13,83.91,120.2,315.25,Single-ply,SBD,M
Boys,124.74+,DQ,Joe Robertson,Cleveland,129.5,,,,,Single-ply,SBD,M
