﻿BDFPF BK SQUAT EQUIPPED 2010
BK SQUAT  EQUIPPED 2010 Florennes
                                    BW    NAME           Voornaam        CLUB             AGE CAT        BW      1     2       3        4       POINTS
1                                   - 70 KG Lerot        Viviane     V   Castors          51        M3   65,2    85    95      100              80,21
1                                   - 80 KG Dechamps     Nadege      V   Castors          14        T1   71,8    125   140     150      155     111,68
1                                   60 KG De Vissher     Geovanni    M   Power Lebbeke    16        T2   59,8    110   -125    125              101,95
1                                   75 KG Eeckhout       Laurens     M   Elite Gym Gent   15        T1   68,5    140   147,5   152,5            109,25
1                                   75 KG Verret         Danny       M   Planet Fitness   35        SR   71,2    115   120     130              90,10
1                                   75 KG Callemeyn      Johny       M   Fit 4 fun        57        M4   72,5    155   160     -165             109,25
1                                   82,5 KG Famaey       Jamy        M   Power Lebbeke    20        JR   78,7    140   -150    150              96,08
1                                   82,5 KG De Reuze     Benny       M   Power Lebbeke    24        SR   78,2    160   167,5   -175             107,80
1                                   82,5 KG Hallewaert   Bart        M   Isogym           41        M1   77,5    180   200     210              136,06
1                                   90 KG Verbeke        Beny        M   Isogym           45        M2   82,6    190   212,5   232,5    242,5   143,87
1                                   125 KG Dechamps      Sebastien   M   Castors          17        T2   125,0   300   -320    -320             156,30
1                                   125 KG Dechamps      Jerome      M   Castors          22        JR   122,6   290   305     -312,5           159,88
1                                   125 KG Jammaer       Wim         M   Planet Fitness   27        SR   115,6   190   205                      108,83
1                                   145 KG Goovaerts     Marc        M   Elite Gym Gent   53        M3   125,5   100                            52,04
NIEUW RECORD / NOUVEAU RECORD
BSTE ATLEET / MEILLEUR ATLETE
17 OCT 2010, Florennes
