Place,Name,Division,Equipment,Event,BirthDate,BirthYear,Sex,BodyweightKg,WeightClassKg,Squat1Kg,Squat2Kg,Squat3Kg,Best3SquatKg,Bench1Kg,Bench2Kg,Bench3Kg,Best3BenchKg,Deadlift1Kg,Deadlift2Kg,Deadlift3Kg,Best3DeadliftKg,TotalKg
1,Pierre Halftermeyer,Masters 1,Raw,SBD,,1981,M,71.9,74,140,150,157.5,157.5,92.5,100,-107.5,100,170,180,190,190,447.5
1,Aurélien Pilato,Masters 1,Raw,SBD,,1981,M,80,83,180,195,205,205,115,125,130,130,205,-220,,205,540
1,Sylvain Le Roux,Masters 2,Raw,SBD,,1967,M,70.7,74,130,135,140,140,95,-100,-100,95,150,155,160,160,395
1,Vincent Eldin,Masters 1,Raw,B,,1972,M,73.6,74,,,,,125,,,125,,,,,125
1,Joel Leclair,Masters 4,Raw,B,,1947,M,101,105,,,,,100,105,-110,105,,,,,105
1,Vincent Eldin,Masters 1,Single-ply,B,,1972,M,73.6,74,,,,,150,170,,170,,,,,170
