Division,WeightClassKg,Place,Name,Team,BodyweightKg,Best3SquatKg,Best3BenchKg,Best3DeadliftKg,TotalKg,Equipment,Event,Sex
Boys,51.71,1,K J Stephens,Lampasas,51.71,102.06,54.43,108.86,265.35,Single-ply,SBD,M
Boys,51.71,2,Fabian Young,Blanco,48.9,90.72,49.9,122.47,263.08,Single-ply,SBD,M
Boys,51.71,3,Luke Talley,Lago Vista,44.72,83.91,52.16,92.99,229.06,Single-ply,SBD,M
Boys,51.71,4,Enrique Reyes,Marble Falls,50.98,77.11,43.09,92.99,213.19,Single-ply,SBD,M
Boys,55.79,1,Preston Fox,Lampasas,55.07,142.88,99.79,154.22,396.89,Single-ply,SBD,M
Boys,55.79,2,Tucker Klein,Fredericksburg,55.79,115.67,90.72,142.88,349.27,Single-ply,SBD,M
Boys,55.79,3,Luke Keller,Llano,54.07,131.54,63.5,136.08,331.12,Single-ply,SBD,M
Boys,55.79,4,Gabe Gonzalez,Blanco,55.61,115.67,61.23,131.54,308.44,Single-ply,SBD,M
Boys,55.79,5,Jaret Martinez,Liberty Hill,54.7,113.4,61.23,115.67,290.3,Single-ply,SBD,M
Boys,59.87,1,Payton Melchor,Liberty Hill,59.87,158.76,90.72,176.9,426.38,Single-ply,SBD,M
Boys,59.87,2,Kyle Arriola,Lampasas,59.06,142.88,95.25,167.83,405.97,Single-ply,SBD,M
Boys,59.87,3,Tommy Johnson,Marble Falls,58.69,142.88,81.65,154.22,378.75,Single-ply,SBD,M
Boys,59.87,4,James Eckford,Liberty Hill,57.52,111.13,72.57,117.93,301.64,Single-ply,SBD,M
Boys,59.87,5,Brennan Vollmar,Fredericksburg,56.34,86.18,58.97,106.59,251.74,Single-ply,SBD,M
Boys,59.87,DQ,Jesse Laidler,Burnet,56.29,,,,,Single-ply,SBD,M
Boys,59.87,DQ,Austin Navejas,Comfort,59.51,158.76,,,,Single-ply,SBD,M
Boys,67.13,1,Christian Flores,Blanco,64.86,222.26,113.4,201.85,537.51,Single-ply,SBD,M
Boys,67.13,2,Ryan Jackson,Burnet,65.77,204.12,124.74,167.83,496.68,Single-ply,SBD,M
Boys,67.13,3,Major Bowden,Brownwood,65.86,151.95,88.45,158.76,399.16,Single-ply,SBD,M
Boys,67.13,4,Uriah King,Brownwood,64.95,145.15,90.72,145.15,381.02,Single-ply,SBD,M
Boys,67.13,5,Caleb Roberts,Burnet,65.41,142.88,65.77,158.76,367.41,Single-ply,SBD,M
Boys,67.13,6,Emmitt Venable,Llano,61.42,129.27,74.84,145.15,349.27,Single-ply,SBD,M
Boys,67.13,7,Hayden Chapman,Lago Vista,66.13,140.61,83.91,124.74,349.27,Single-ply,SBD,M
Boys,67.13,8,Mark Calzada,Burnet,61.78,127.01,74.84,136.08,337.93,Single-ply,SBD,M
Boys,67.13,9,Jacob Bohnert,Fredericksburg,61.6,113.4,77.11,138.35,328.85,Single-ply,SBD,M
Boys,67.13,10,John Tewksbury,Fredericksburg,61.23,117.93,74.84,133.81,326.59,Single-ply,SBD,M
Boys,67.13,11,Joseph Botik,Lago Vista,63.14,106.59,68.04,120.2,294.84,Single-ply,SBD,M
Boys,67.13,12,Cordyn Alderman,Marble Falls,60.78,102.06,81.65,102.06,285.76,Single-ply,SBD,M
Boys,67.13,DQ,Gavin Mudd,Fredericksburg,64.5,129.27,102.06,,,Single-ply,SBD,M
Boys,74.84,1,Jaxson Denton,Burnet,73.94,183.7,117.93,192.78,494.42,Single-ply,SBD,M
Boys,74.84,2,Kolby Allen,Lampasas,74.48,188.24,113.4,183.7,485.34,Single-ply,SBD,M
Boys,74.84,3,Lander Chisholm,Lampasas,74.03,183.7,92.99,183.7,460.4,Single-ply,SBD,M
Boys,74.84,4,Austin Van Pelt,Blanco,74.66,156.49,106.59,185.97,449.06,Single-ply,SBD,M
Boys,74.84,5,Austin Simpson,Fredericksburg,73.12,161.03,97.52,181.44,439.98,Single-ply,SBD,M
Boys,74.84,6,Jake Self,Llano,72.57,158.76,102.06,163.29,424.11,Single-ply,SBD,M
Boys,74.84,7,Joe Maldonado,Marble Falls,73.94,176.9,92.99,154.22,424.11,Single-ply,SBD,M
Boys,74.84,8,Ty Adkinson,Blanco,69.22,156.49,99.79,154.22,410.5,Single-ply,SBD,M
Boys,74.84,9,Lane Kime,Brownwood,69.67,154.22,92.99,158.76,405.97,Single-ply,SBD,M
Boys,74.84,10,William O'Dell,Brownwood,71.21,136.08,102.06,133.81,371.95,Single-ply,SBD,M
Boys,74.84,11,Christian Beall,Lago Vista,69.94,124.74,77.11,142.88,344.73,Single-ply,SBD,M
Boys,74.84,12,Andrew Burns,Fredericksburg,70.67,113.4,81.65,136.08,331.12,Single-ply,SBD,M
Boys,74.84,DQ,Tim Hudgins,Burnet,67.9,149.69,,,,Single-ply,SBD,M
Boys,74.84,DQ,Jett Huffman,Marble Falls,72.21,170.1,95.25,,,Single-ply,SBD,M
Boys,82.1,1,Joshua Handley,Fredericksburg,78.2,188.24,142.88,213.19,544.31,Single-ply,SBD,M
Boys,82.1,2,Case Brister,Lampasas,75.93,197.31,113.4,204.12,514.83,Single-ply,SBD,M
Boys,82.1,3,Grishma Pun,Burnet,81.65,204.12,115.67,188.24,508.02,Single-ply,SBD,M
Boys,82.1,4,Keagan Richardson,Lampasas,79.74,179.17,104.33,181.44,464.93,Single-ply,SBD,M
Boys,82.1,5,Dylan Ahrens,Fredericksburg,80.83,151.95,113.4,183.7,449.06,Single-ply,SBD,M
Boys,82.1,6,Chris Delgadillo,Burnet,80.97,140.61,97.52,170.1,408.23,Single-ply,SBD,M
Boys,82.1,7,Jace Hood,Lago Vista,82.01,158.76,95.25,151.95,405.97,Single-ply,SBD,M
Boys,82.1,8,Samuel Farell,Marble Falls,81.92,133.81,88.45,154.22,376.48,Single-ply,SBD,M
Boys,82.1,9,Voice Tuttle,Marble Falls,80.47,129.27,108.86,131.54,369.68,Single-ply,SBD,M
Boys,82.1,DQ,Zachary Aiken,Liberty Hill,78.47,,,,,Single-ply,SBD,M
Boys,82.1,DQ,Conner Schrader,Burnet,79.06,,,,,Single-ply,SBD,M
Boys,89.81,1,Christian Keizer,Liberty Hill,85.09,208.65,151.95,192.78,553.38,Single-ply,SBD,M
Boys,89.81,2,Lakota Lawrence,Liberty Hill,85.09,197.31,138.35,208.65,544.31,Single-ply,SBD,M
Boys,89.81,3,Glenn Thomas,Marble Falls,89.81,229.06,111.13,204.12,544.31,Single-ply,SBD,M
Boys,89.81,4,Logan Duggar,Llano,82.37,208.65,104.33,215.46,528.44,Single-ply,SBD,M
Boys,89.81,5,Jacob Maldonado,Marble Falls,86.64,183.7,106.59,192.78,483.08,Single-ply,SBD,M
Boys,89.81,6,Layne Powers,Lago Vista,84.1,183.7,113.4,183.7,480.81,Single-ply,SBD,M
Boys,89.81,7,Bareden Howell,Burnet,86.09,170.1,120.2,161.03,451.32,Single-ply,SBD,M
Boys,89.81,8,Blake Estes,Burnet,86.18,154.22,117.93,174.63,446.79,Single-ply,SBD,M
Boys,89.81,9,Jose Vasquez,Marble Falls,89.18,142.88,95.25,170.1,408.23,Single-ply,SBD,M
Boys,89.81,10,Jesus Chacon,Llano,83.91,154.22,72.57,145.15,371.95,Single-ply,SBD,M
Boys,89.81,11,Dax Lawhon,Lago Vista,87,129.27,86.18,120.2,335.66,Single-ply,SBD,M
Boys,99.79,1,Owen Seaver,Lampasas,95.89,181.44,142.88,183.7,508.02,Single-ply,SBD,M
Boys,99.79,2,Mason Baker,Llano,94.62,185.97,115.67,199.58,501.22,Single-ply,SBD,M
Boys,99.79,3,Ethan Pesina,Brownwood,99.43,174.63,115.67,161.03,451.32,Single-ply,SBD,M
Boys,99.79,4,Brandon Farrow #2,Brownwood,94.26,161.03,102.06,142.88,405.97,Single-ply,SBD,M
Boys,99.79,5,Randy Piper,Comfort,99.16,165.56,90.72,149.69,405.97,Single-ply,SBD,M
Boys,99.79,6,Matthew Kluepper,Llano,89.9,140.61,90.72,140.61,371.95,Single-ply,SBD,M
Boys,99.79,7,Zach Watson,Llano,94.17,113.4,81.65,136.08,331.12,Single-ply,SBD,M
Boys,109.77,1,Roger Craig,Burnet,109.23,272.16,179.17,256.28,707.6,Single-ply,SBD,M
Boys,109.77,2,Jeremy Rodgers,Lampasas,108.68,231.33,138.35,254.01,623.69,Single-ply,SBD,M
Boys,109.77,3,Zeke Ibarra,Brownwood,107.23,204.12,142.88,197.31,544.31,Single-ply,SBD,M
Boys,109.77,4,Chance Horton,Blanco,109.13,204.12,147.42,192.78,544.31,Single-ply,SBD,M
Boys,109.77,5,Isiah Mason,Liberty Hill,103.87,183.7,124.74,188.24,496.68,Single-ply,SBD,M
Boys,109.77,6,Johnathan Baker,Burnet,109.59,181.44,124.74,185.97,492.15,Single-ply,SBD,M
Boys,109.77,7,Genaro Hernandez,Comfort,104.78,192.78,113.4,183.7,489.88,Single-ply,SBD,M
Boys,109.77,8,Cristian Avilez,Fredericksburg,105.6,179.17,127.01,181.44,487.61,Single-ply,SBD,M
Boys,109.77,9,Joshua Paulino,Llano,103.78,172.37,88.45,149.69,410.5,Single-ply,SBD,M
Boys,109.77,10,John Baker,Liberty Hill,100.06,136.08,90.72,149.69,376.48,Single-ply,SBD,M
Boys,124.74,1,Justin Montgomery,Liberty Hill,122.2,274.42,174.63,251.74,700.8,Single-ply,SBD,M
Boys,124.74,2,Zac Hudgins,Burnet,116.66,260.82,154.22,238.14,653.17,Single-ply,SBD,M
Boys,124.74,3,Hayden Henry,Burnet,117.48,233.6,124.74,213.19,571.53,Single-ply,SBD,M
Boys,124.74,4,Drake Truitt,Liberty Hill,110.31,226.8,138.35,204.12,569.26,Single-ply,SBD,M
Boys,124.74,5,Landon West,Fredericksburg,121.2,199.58,136.08,226.8,562.45,Single-ply,SBD,M
Boys,124.74,6,Brad Robinson,Brownwood,111.49,226.8,127.01,192.78,546.58,Single-ply,SBD,M
Boys,124.74,7,Paul Montez,Liberty Hill,116.66,201.85,138.35,204.12,544.31,Single-ply,SBD,M
Boys,124.74,8,Adam Murphey,Lampasas,115.12,201.85,131.54,208.65,542.04,Single-ply,SBD,M
Boys,124.74,9,Jaime Herrera,Burnet,116.17,179.17,113.4,188.24,480.81,Single-ply,SBD,M
Boys,124.74,10,Alex Reyna,Brownwood,110.68,183.7,102.06,161.03,446.79,Single-ply,SBD,M
Boys,124.74,11,Lewis McTighe,Llano,115.21,158.76,95.25,158.76,412.77,Single-ply,SBD,M
Boys,124.74+,1,Theo Bryant,Brownwood,127.1,272.16,142.88,229.06,644.1,Single-ply,SBD,M
Boys,124.74+,2,Anthony Melendez,Comfort,167.38,226.8,174.63,219.99,621.42,Single-ply,SBD,M
Boys,124.74+,3,Jared Tippie,Burnet,139.25,251.74,133.81,210.92,596.47,Single-ply,SBD,M
Boys,124.74+,4,John Long,Lampasas,137.62,215.46,156.49,197.31,569.26,Single-ply,SBD,M
Boys,124.74+,5,Griffin Beard,Lago Vista,125.01,254.01,102.06,204.12,560.19,Single-ply,SBD,M
Boys,124.74+,6,Carlos Salazar,Brownwood,139.71,192.78,117.93,190.51,501.22,Single-ply,SBD,M
Boys,,NS,Brigham Grover,Marble Falls,,,,,,Single-ply,SBD,M
