Name,Sex,WeightClassKg,Division,AgeRange,Equipment,Best3BenchKg,Best3DeadliftKg,TotalKg,Event,Place,Bench4Kg,Deadlift4Kg,Age
Beth Steyna,F,60,,,Single-ply,38.56,,38.56,B,1,,,
Amber Bates,F,60,,,Single-ply,34.02,,34.02,B,2,,,
J. Greenblat,F,82.5,,,Single-ply,29.48,,29.48,B,1,,,
M. Koskinas,F,82.5,,,Single-ply,29.48,,29.48,B,2,,,
Amber Bates,F,60,Teen,17-19,Single-ply,34.02,,34.02,B,1,,,
M. Koskinas,F,82.5,Junior,20-24,Single-ply,29.48,,29.48,B,1,,,
Beth Steyna,F,60,Masters,45-49,Single-ply,38.56,,38.56,B,1,,,
A. King #6,M,67.5,Open,0-999,Single-ply,102.06,,102.06,B,1,,,
D. Brown,M,75,Open,0-999,Single-ply,104.33,,104.33,B,2,,,
R. Alvarado,M,82.5,Open,0-999,Single-ply,158.76,,158.76,B,3,,,
P. Bozza,M,82.5,Open,0-999,Single-ply,151.95,,151.95,B,4,,,
G. Holmes,M,82.5,Open,0-999,Single-ply,140.61,,140.61,B,5,,,
M. Scotto,M,82.5,Open,0-999,Single-ply,120.2,,120.2,B,6,,,
T. Rourke,M,82.5,Open,0-999,Single-ply,111.13,,111.13,B,7,,,
M. Harney,M,82.5,Open,0-999,Single-ply,97.52,,97.52,B,8,,,
T. Dukes,M,82.5,Open,0-999,Single-ply,83.91,,83.91,B,9,,,
R. Rosati,M,90,Open,0-999,Single-ply,158.76,,158.76,B,1,,,
M. Ward,M,90,Open,0-999,Single-ply,147.42,,147.42,B,2,,,
M. Kovacs,M,90,Open,0-999,Single-ply,131.54,,131.54,B,3,,,
B. Devlin,M,90,Open,0-999,Single-ply,63.5,,63.5,B,4,,,
T. Devlin,M,100,Open,0-999,Single-ply,124.74,,124.74,B,1,,,
G. Goushian,M,100,Open,0-999,Single-ply,117.93,,117.93,B,2,,,
C. Corcoran,M,110,Open,0-999,Single-ply,133.81,,133.81,B,1,,,
F. Meyers,M,125,Open,0-999,Single-ply,195.04,,195.04,B,1,,,
L. Governatore,M,125,Open,0-999,Single-ply,165.56,,165.56,B,2,,,
T. Lukocious,M,140,Open,0-999,Single-ply,190.51,,190.51,B,1,,,
Richard Dover,M,140+,Open,0-999,Single-ply,238.14,,238.14,B,1,,,
T. Lukocious,M,140+,PFM,0-999,Single-ply,190.51,,190.51,B,1,,,
B. Devlin,M,90,Teen,17-19,Single-ply,63.5,,63.5,B,1,,,
J. Moore,M,110,Teen,17-19,Single-ply,136.08,,136.08,B,1,,,
M. Milligan,M,110,Junior,20-24,Single-ply,129.27,,129.27,B,1,,,
P. Bozza,M,110,Submasters,,Single-ply,151.95,,151.95,B,1,,,
R. Rosati,M,82.5,Submasters,,Single-ply,158.76,,158.76,B,1,,,
L. Governatore,M,125,Submasters,,Single-ply,165.56,,165.56,B,1,,,
T. Lukocious,M,140,Submasters,,Single-ply,190.51,,190.51,B,1,,,
Richard Dover,M,140+,Submasters,,Single-ply,238.14,,238.14,B,1,,,
M. Ward,M,90,Masters,40-44,Single-ply,147.42,,147.42,B,1,,,
T. Devlin,M,100,Masters,40-44,Single-ply,124.74,,124.74,B,1,,,
C. Herman,M,110,Masters,50-54,Single-ply,36.29,,36.29,B,1,,,
F. Meyers,M,125,Masters,55-59,Single-ply,195.04,,195.04,B,1,,,
B. Feeney,M,125,Masters,55-59,Single-ply,145.15,,145.15,B,2,,,
W. Foster,M,125,Masters,55-59,Single-ply,142.88,,142.88,B,3,,,
Richard Dover,M,140+,Masters,55-59,Single-ply,238.14,,238.14,B,1,,,
Joya Weil,F,52,Open,0-999,Single-ply,,92.99,92.99,D,1,,,
T. Egerer,F,56,Open,0-999,Single-ply,,86.18,86.18,D,1,,,
Beth Steyna,F,60,Open,0-999,Single-ply,,88.45,88.45,D,1,,,
Amber Bates,F,60,Open,0-999,Single-ply,,63.5,63.5,D,2,,,
K. Swenson,F,67.5,Open,0-999,Single-ply,,90.72,90.72,D,1,,,
J. Greenblat,F,82.5,Open,0-999,Single-ply,,90.72,90.72,D,1,,,
Amber Bates,F,60,Teen,17-19,Single-ply,,63.5,63.5,D,1,,,
M. Wakeley,M,56,Open,0-999,Single-ply,,108.86,108.86,D,1,,,
D. Brown,M,75,Open,0-999,Single-ply,,124.74,124.74,D,1,,,
P. Bozza,M,82.5,Open,0-999,Single-ply,,240.4,240.4,D,1,,,
T. Rourke,M,82.5,Open,0-999,Single-ply,,229.06,229.06,D,2,,,
R. Alvarado,M,82.5,Open,0-999,Single-ply,,215.46,215.46,D,3,,,
J. Guida,M,82.5,Open,0-999,Single-ply,,210.92,210.92,D,4,,,
M. Scotto,M,82.5,Open,0-999,Single-ply,,197.31,197.31,D,5,,,
G. Holmes,M,82.5,Open,0-999,Single-ply,,185.97,185.97,D,6,,,
M. Harney,M,82.5,Open,0-999,Single-ply,,158.76,158.76,D,7,,,
T. Dukes,M,82.5,Open,0-999,Single-ply,,122.47,122.47,D,8,,,
Joseph Spence,M,90,Open,0-999,Single-ply,,272.16,272.16,D,1,,,
M. Milligan,M,90,Open,0-999,Single-ply,,222.26,222.26,D,2,,,
B. Wehman,M,90,Open,0-999,Single-ply,,204.12,204.12,D,3,,,
M. Ward,M,90,Open,0-999,Single-ply,,183.7,183.7,D,4,,,
J. Jeffers,M,100,Open,0-999,Single-ply,,283.5,283.5,D,1,,,
G. Goushian,M,100,Open,0-999,Single-ply,,240.4,240.4,D,2,,,
D. Gibson,M,110,Open,0-999,Single-ply,,283.5,283.5,D,1,,,
C. Corcoran,M,110,Open,0-999,Single-ply,,201.85,201.85,D,2,,,
T. Lukocious,M,140,Open,0-999,Single-ply,,260.82,260.82,D,1,,,
J. Moore,M,110,Teen,17-19,Single-ply,,219.99,219.99,D,1,,,
Joseph Spence,M,90,Junior,20-24,Single-ply,,272.16,272.16,D,1,,,
M. Milligan,M,90,Junior,20-24,Single-ply,,222.26,222.26,D,2,,,
P. Williams,M,110,Junior,20-24,Single-ply,,272.16,272.16,D,1,,,
D. Gibson,M,110,Submasters,30-34,Single-ply,,283.5,283.5,D,1,,,
Joseph Spence,M,110,PFM,,Single-ply,,272.16,272.16,D,1,,,
T. Lukocious,M,140,Submasters,,Single-ply,,260.82,260.82,D,1,,,
W. Foster,M,140+,Masters,55-59,Single-ply,,233.6,233.6,D,1,,,
