Division,WeightClassKg,Place,Name,Team,BodyweightKg,Best3SquatKg,Best3BenchKg,Best3DeadliftKg,TotalKg,Equipment,Event,Sex
Boys,51.71,1,Antonio White,Copperas Cove,51.53,90.72,68.04,127.01,285.76,Single-ply,SBD,M
Boys,51.71,2,Santiago Ortega,Belton,50.8,90.72,52.16,115.67,258.55,Single-ply,SBD,M
Boys,51.71,3,Tristen Aleksines,Hutto,49.9,81.65,45.36,104.33,231.33,Single-ply,SBD,M
Boys,51.71,4,Mason Johnson,Gatesville,44.63,72.57,47.63,86.18,206.38,Single-ply,SBD,M
Boys,51.71,DQ,Samuel West,Belton,51.26,49.9,56.7,90.72,,Single-ply,SBD,M
Boys,55.79,1,Alec Webster,Killeen Shoemaker,55.02,199.58,117.93,188.24,505.76,Single-ply,SBD,M
Boys,55.79,2,Martin Stafford,Belton,55.79,136.08,83.91,154.22,374.21,Single-ply,SBD,M
Boys,55.79,3,Delante Adkinson,Temple,53.34,136.08,79.38,142.88,358.34,Single-ply,SBD,M
Boys,55.79,4,Travis Potter,Gatesville,52.62,131.54,61.23,136.08,328.85,Single-ply,SBD,M
Boys,55.79,5,Marquez Thompkins,Temple,55.07,102.06,83.91,131.54,317.51,Single-ply,SBD,M
Boys,55.79,6,Alain Rabarisoamihono,Temple,52.53,79.38,56.7,102.06,238.14,Single-ply,SBD,M
Boys,55.79,DQ,Matt Arrendondo,Belton,54.43,102.06,52.16,113.4,,Single-ply,SBD,M
Boys,59.87,1,Channing Christophe,Killeen Shoemaker,59.69,185.97,108.86,199.58,494.42,Single-ply,SBD,M
Boys,59.87,2,Davion Aldridge,Hutto,57.15,176.9,97.52,206.38,480.81,Single-ply,SBD,M
Boys,59.87,3,Dwight Roberts,Temple,59.87,156.49,97.52,190.51,444.52,Single-ply,SBD,M
Boys,59.87,4,Kade Fly,Hutto,59.87,147.42,68.04,147.42,362.87,Single-ply,SBD,M
Boys,59.87,5,Chuck Armstrong,Temple,58.42,122.47,70.31,142.88,335.66,Single-ply,SBD,M
Boys,59.87,6,Ty Culp,Temple,59.69,113.4,68.04,127.01,308.44,Single-ply,SBD,M
Boys,59.87,DQ,Christian Castillo,Belton,59.42,124.74,63.5,147.42,,Single-ply,SBD,M
Boys,59.87,DQ,Jacob Jimenez,Belton,59.42,117.93,90.72,145.15,,Single-ply,SBD,M
Boys,67.13,1,Braden Shaffer,Belton,66.22,167.83,111.13,174.63,453.59,Single-ply,SBD,M
Boys,67.13,2,Brennan Hunt,Belton,67.13,181.44,86.18,179.17,446.79,Single-ply,SBD,M
Boys,67.13,3,Jesse Barron,Hutto,60.96,165.56,81.65,181.44,428.64,Single-ply,SBD,M
Boys,67.13,4,Jaylan Hannah,Copperas Cove,67.13,147.42,92.99,170.1,410.5,Single-ply,SBD,M
Boys,67.13,5,Craig Dawson,Waco Midway,63.78,165.56,83.91,149.69,399.16,Single-ply,SBD,M
Boys,67.13,6,Darius Fuselier,Copperas Cove,66.04,142.88,74.84,147.42,365.14,Single-ply,SBD,M
Boys,67.13,7,Mark Ochoa,Temple,64.41,129.27,86.18,140.61,356.07,Single-ply,SBD,M
Boys,67.13,8,Jaylan Smith,Copperas Cove,66.13,129.27,86.18,136.08,351.53,Single-ply,SBD,M
Boys,67.13,9,Carrington Mitchell,Hutto,64.86,113.4,74.84,151.95,340.19,Single-ply,SBD,M
Boys,67.13,DQ,Patrick Frazho,Belton,67.13,113.4,68.04,136.08,,Single-ply,SBD,M
Boys,67.13,DQ,Cade Anson,Belton,66.22,124.74,70.31,145.15,,Single-ply,SBD,M
Boys,74.84,1,Jameel Creech,Killeen Shoemaker,73.84,215.46,140.61,197.31,553.38,Single-ply,SBD,M
Boys,74.84,2,Jacob Lewallen,Belton,73.94,210.92,108.86,197.31,517.1,Single-ply,SBD,M
Boys,74.84,3,Chance Alvarez,Gatesville,68.76,185.97,117.93,204.12,508.02,Single-ply,SBD,M
Boys,74.84,4,Chandler Vela,Belton,74.39,183.7,106.59,188.24,478.54,Single-ply,SBD,M
Boys,74.84,5,Jayden Medina,Hutto,74.39,176.9,92.99,185.97,455.86,Single-ply,SBD,M
Boys,74.84,6,Chet Ligon,Belton,72.57,176.9,92.99,172.37,442.25,Single-ply,SBD,M
Boys,74.84,7,Mark Mebane,Belton,69.85,167.83,90.72,179.17,437.72,Single-ply,SBD,M
Boys,74.84,8,Demontrez Miller,Killeen Shoemaker,73.12,170.1,108.86,158.76,437.72,Single-ply,SBD,M
Boys,74.84,9,Z Johnson,Temple,71.49,158.76,102.06,158.76,419.57,Single-ply,SBD,M
Boys,74.84,10,Bailey Janisch,Gatesville,73.66,158.76,102.06,158.76,419.57,Single-ply,SBD,M
Boys,74.84,11,Jakobe Davidson,Hutto,73.3,147.42,81.65,183.7,412.77,Single-ply,SBD,M
Boys,74.84,12,Kyleland Sauls,Temple,68.04,158.76,92.99,158.76,410.5,Single-ply,SBD,M
Boys,74.84,13,Shontez Simmons,Copperas Cove,71.85,156.49,68.04,165.56,390.09,Single-ply,SBD,M
Boys,74.84,14,Nahcyem Brooks,Killeen Shoemaker,73.57,117.93,83.91,181.44,383.29,Single-ply,SBD,M
Boys,74.84,15,Cameron Forrest,Hutto,67.4,129.27,92.99,154.22,376.48,Single-ply,SBD,M
Boys,74.84,DQ,Michael Essix,Waco,68.31,,79.38,154.22,,Single-ply,SBD,M
Boys,74.84,DQ,Cason Schur,Belton,73.94,151.95,,158.76,,Single-ply,SBD,M
Boys,82.1,1,Malik Stoutamire,Temple,78.2,213.19,140.61,240.4,594.21,Single-ply,SBD,M
Boys,82.1,2,Patrick Gaither,Waco Midway,77.75,179.17,151.95,213.19,544.31,Single-ply,SBD,M
Boys,82.1,3,Caine Garner,Copperas Cove,82.1,183.7,99.79,219.99,503.49,Single-ply,SBD,M
Boys,82.1,4,Kameron Spruil,Copperas Cove,78.38,183.7,99.79,204.12,487.61,Single-ply,SBD,M
Boys,82.1,5,Keanu Comacho,Copperas Cove,80.74,201.85,108.86,174.63,485.34,Single-ply,SBD,M
Boys,82.1,6,Jacob Williams,Gatesville,75.75,188.24,102.06,172.37,462.66,Single-ply,SBD,M
Boys,82.1,7,Austin Olson,Hutto,77.02,165.56,90.72,199.58,455.86,Single-ply,SBD,M
Boys,82.1,8,Dejuan Hampton,Copperas Cove,77.47,151.95,83.91,165.56,401.43,Single-ply,SBD,M
Boys,82.1,DQ,Blayton Evans,Belton,78.02,145.15,79.38,165.56,,Single-ply,SBD,M
Boys,82.1,DQ,Jason Garrett,Belton,81.65,124.74,,145.15,,Single-ply,SBD,M
Boys,82.1,DQ,Sloan Crews,Belton,80.74,161.03,,158.76,,Single-ply,SBD,M
Boys,89.81,1,John Harvey,Belton,88.45,229.06,138.35,226.8,594.21,Single-ply,SBD,M
Boys,89.81,2,Buddy Curry,Belton,85.73,213.19,138.35,204.12,555.65,Single-ply,SBD,M
Boys,89.81,3,Rogers Franklin,Temple,86.27,185.97,115.67,204.12,505.76,Single-ply,SBD,M
Boys,89.81,4,Ajani Rogers,Temple,88.36,167.83,127.01,204.12,498.95,Single-ply,SBD,M
Boys,89.81,5,Da'Tavion Hall,Temple,85.09,188.24,127.01,181.44,496.68,Single-ply,SBD,M
Boys,89.81,6,Bryce Avila,Belton,88.9,183.7,117.93,190.51,492.15,Single-ply,SBD,M
Boys,89.81,7,Jacob Rogers,Belton,89.81,183.7,106.59,197.31,487.61,Single-ply,SBD,M
Boys,89.81,8,David Benton,Waco Midway,83.91,170.1,102.06,181.44,453.59,Single-ply,SBD,M
Boys,89.81,9,Benny Sherburn,Gatesville,82.92,170.1,117.93,163.29,451.32,Single-ply,SBD,M
Boys,89.81,10,Tyson Curry,Copperas Cove,83.91,165.56,99.79,183.7,449.06,Single-ply,SBD,M
Boys,89.81,11,Cornez Harris,Killeen Shoemaker,84.55,170.1,83.91,172.37,426.38,Single-ply,SBD,M
Boys,89.81,12,Connor Laughrin,Gatesville,89.81,147.42,74.84,117.93,340.19,Single-ply,SBD,M
Boys,89.81,DQ,Devon Taplin,Belton,89.81,147.42,90.72,145.15,,Single-ply,SBD,M
Boys,99.79,1,Zach Haverly,Waco Midway,94.26,226.8,127.01,235.87,589.67,Single-ply,SBD,M
Boys,99.79,2,Sam Jackson #1,Gatesville,98.34,226.8,142.88,210.92,580.6,Single-ply,SBD,M
Boys,99.79,3,Jerry Leyba,Belton,92.08,213.19,124.74,226.8,564.72,Single-ply,SBD,M
Boys,99.79,4,Tavis Lewis,Copperas Cove,95.25,172.37,88.45,181.44,442.25,Single-ply,SBD,M
Boys,99.79,5,Jamar Wheless,Waco,99.34,136.08,90.72,170.1,396.89,Single-ply,SBD,M
Boys,99.79,6,Jacob Snoddy,Gatesville,97.43,124.74,92.99,124.74,342.46,Single-ply,SBD,M
Boys,99.79,DQ,Taylor Zikuhr,Belton,93.44,133.81,81.65,138.35,,Single-ply,SBD,M
Boys,99.79,DQ,Arvin Jones,Killeen Shoemaker,98.52,147.42,,,,Single-ply,SBD,M
Boys,109.77,1,Brandon Gangloff,Belton,107.05,224.53,149.69,226.8,601.01,Single-ply,SBD,M
Boys,109.77,2,Taquon Graham,Temple,109.77,195.04,127.01,238.14,560.19,Single-ply,SBD,M
Boys,109.77,3,Cody Garrett,Belton,107.95,233.6,124.74,199.58,557.92,Single-ply,SBD,M
Boys,109.77,4,Jer'markise Haynes,Waco Midway,108.05,185.97,117.93,199.58,503.49,Single-ply,SBD,M
Boys,109.77,5,Matthew Hernandez,Killeen Shoemaker,107.59,192.78,129.27,158.76,480.81,Single-ply,SBD,M
Boys,109.77,6,Tyrese Samuel,Copperas Cove,105.78,156.49,113.4,170.1,439.98,Single-ply,SBD,M
Boys,109.77,7,Corey Ebron,Waco,104.78,165.56,92.99,161.03,419.57,Single-ply,SBD,M
Boys,109.77,8,Ezekiel Buchanon,Copperas Cove,109.04,136.08,79.38,161.03,376.48,Single-ply,SBD,M
Boys,109.77,DQ,Dewey Rice,Belton,101.6,151.95,92.99,136.08,,Single-ply,SBD,M
Boys,109.77,DQ,David Fisher,Belton,106.59,,,,,Single-ply,SBD,M
Boys,109.77,DQ,Chris Dean #3,Killeen Shoemaker,109.32,192.78,,,,Single-ply,SBD,M
Boys,124.74,1,Braden Martinez,Belton,120.66,306.17,151.95,272.16,730.28,Single-ply,SBD,M
Boys,124.74,2,Bailey Adair,Gatesville,118.3,283.5,161.03,215.46,659.98,Single-ply,SBD,M
Boys,124.74,3,Arturo Jamies,Belton,111.58,226.8,117.93,240.4,585.13,Single-ply,SBD,M
Boys,124.74,4,Jaxon Player,Waco Midway,118.93,222.26,131.54,210.92,564.72,Single-ply,SBD,M
Boys,124.74,5,Lamonte Williams,Temple,122.47,204.12,133.81,224.53,562.45,Single-ply,SBD,M
Boys,124.74,6,Kevondre Black,Waco,113.04,226.8,127.01,204.12,557.92,Single-ply,SBD,M
Boys,124.74,7,Hakeem White,Waco Midway,124.74,217.72,120.2,217.72,555.65,Single-ply,SBD,M
Boys,124.74,8,Robert Jackson,Temple,112.22,204.12,127.01,199.58,530.7,Single-ply,SBD,M
Boys,124.74,9,Jaime Calderon,Waco,117.48,215.46,120.2,185.97,521.63,Single-ply,SBD,M
Boys,124.74,10,Josh Childress,Temple,115.67,174.63,104.33,190.51,469.47,Single-ply,SBD,M
Boys,124.74,11,Jim Hitchcock,Gatesville,116.12,165.56,92.99,156.49,415.04,Single-ply,SBD,M
Boys,124.74,12,Henry Beard,Waco Midway,124.74,140.61,90.72,142.88,374.21,Single-ply,SBD,M
Boys,124.74,DQ,James Bradford,Belton,112.49,158.76,86.18,167.83,,Single-ply,SBD,M
Boys,124.74,DQ,Sidney Sherwood,Belton,115.67,154.22,108.86,151.95,,Single-ply,SBD,M
Boys,124.74,DQ,Brandon Taylor,Gatesville,110.77,260.82,147.42,,,Single-ply,SBD,M
Boys,124.74,DQ,Chris Bullington,Gatesville,115.58,260.82,147.42,,,Single-ply,SBD,M
Boys,124.74,DQ,Robert Moore,Killeen Shoemaker,114.21,124.74,,,,Single-ply,SBD,M
Boys,124.74+,1,Nakeveyon Vincent,Waco,151.5,317.51,158.76,238.14,714.41,Single-ply,SBD,M
Boys,124.74+,2,Javon Chambers,Belton,134.26,294.84,154.22,215.46,664.51,Single-ply,SBD,M
Boys,124.74+,3,Marty Rodriguez,Hutto,133.27,244.94,127.01,208.65,580.6,Single-ply,SBD,M
Boys,124.74+,4,Brian Holiday,Waco Midway,138.8,242.67,129.27,181.44,553.38,Single-ply,SBD,M
Boys,124.74+,5,Josh Haynes,Temple,156.58,215.46,117.93,215.46,548.85,Single-ply,SBD,M
Boys,,NS,Merrick Williams,Temple,,,,,,Single-ply,SBD,M
Boys,,NS,D'Yonte Heckstall,Temple,,,,,,Single-ply,SBD,M
Boys,,NS,Corey Mann,Temple,,,,,,Single-ply,SBD,M
Boys,,NS,Emmanuel Tuitasi,Killeen Shoemaker,,,,,,Single-ply,SBD,M
Boys,,NS,Trey Penick,Killeen Shoemaker,,,,,,Single-ply,SBD,M
Boys,,NS,Deanta Pittman,Killeen Shoemaker,,,,,,Single-ply,SBD,M
Boys,,NS,Daizion Carroll,Waco Midway,,,,,,Single-ply,SBD,M
Boys,,NS,Phillip Haskins,Temple,,,,,,Single-ply,SBD,M
Boys,,NS,Khalil Glasker,Waco,,,,,,Single-ply,SBD,M
Boys,,NS,De'Jour Silmon,Waco,,,,,,Single-ply,SBD,M
Boys,,NS,Elizar Venegas,Waco Midway,,,,,,Single-ply,SBD,M
Boys,,NS,David Turner,Hutto,,,,,,Single-ply,SBD,M
Boys,,NS,Branden Russ,Copperas Cove,,,,,,Single-ply,SBD,M
Boys,,NS,Michael Godaue,Copperas Cove,,,,,,Single-ply,SBD,M
Boys,,NS,Jeffrey Shonkwiler,Gatesville,,,,,,Single-ply,SBD,M
Boys,,NS,Brandon Russ,Copperas Cove,,,,,,Single-ply,SBD,M
Boys,,NS,Zach Moody,Copperas Cove,,,,,,Single-ply,SBD,M
Boys,,NS,Christian Esparza,Copperas Cove,,,,,,Single-ply,SBD,M
Boys,,NS,Josh Smith #11,Copperas Cove,,,,,,Single-ply,SBD,M
Boys,,NS,Lane Lewis,Copperas Cove,,,,,,Single-ply,SBD,M
